<?xml version="1.0" encoding="UTF-8" standalone="no"?>
<!-- Created with Inkscape (http://www.inkscape.org/) -->

<svg
   xmlns:dc="http://purl.org/dc/elements/1.1/"
   xmlns:cc="http://creativecommons.org/ns#"
   xmlns:rdf="http://www.w3.org/1999/02/22-rdf-syntax-ns#"
   xmlns:svg="http://www.w3.org/2000/svg"
   xmlns="http://www.w3.org/2000/svg"
   xmlns:xlink="http://www.w3.org/1999/xlink"
   xmlns:sodipodi="http://sodipodi.sourceforge.net/DTD/sodipodi-0.dtd"
   xmlns:inkscape="http://www.inkscape.org/namespaces/inkscape"
   width="40"
   height="60"
   viewBox="0 0 40 60.000001"
   id="svg6786"
   version="1.1"
   inkscape:version="0.91 r"
   sodipodi:docname="bruxelles.svg">
  <defs
     id="defs6788">
    <inkscape:path-effect
       is_visible="true"
       id="path-effect5317"
       effect="spiro" />
    <inkscape:path-effect
       is_visible="true"
       id="path-effect5321"
       effect="spiro" />
    <inkscape:path-effect
       effect="spiro"
       id="path-effect5325"
       is_visible="true" />
    <inkscape:path-effect
       effect="spiro"
       id="path-effect6457"
       is_visible="true" />
    <inkscape:path-effect
       is_visible="true"
       id="path-effect6454"
       effect="spiro" />
    <inkscape:path-effect
       is_visible="true"
       id="path-effect6475"
       effect="spiro" />
    <inkscape:path-effect
       effect="spiro"
       id="path-effect6371"
       is_visible="true" />
    <inkscape:path-effect
       effect="spiro"
       id="path-effect5275"
       is_visible="true" />
    <inkscape:path-effect
       effect="spiro"
       id="path-effect6457-0"
       is_visible="true" />
    <inkscape:path-effect
       is_visible="true"
       id="path-effect6454-1"
       effect="spiro" />
    <inkscape:path-effect
       effect="spiro"
       id="path-effect5275-7"
       is_visible="true" />
    <inkscape:path-effect
       is_visible="true"
       id="path-effect5317-9"
       effect="spiro" />
    <inkscape:path-effect
       is_visible="true"
       id="path-effect5321-4"
       effect="spiro" />
    <inkscape:path-effect
       effect="spiro"
       id="path-effect5325-4"
       is_visible="true" />
    <inkscape:path-effect
       effect="spiro"
       id="path-effect6371-3"
       is_visible="true" />
    <linearGradient
       inkscape:collect="always"
       xlink:href="#linearGradient8462"
       id="linearGradient8468"
       x1="404.72806"
       y1="2045.7526"
       x2="404.50305"
       y2="2018.7701"
       gradientUnits="userSpaceOnUse"
       gradientTransform="translate(-378.84793,-1991.5511)" />
    <linearGradient
       inkscape:collect="always"
       id="linearGradient8462">
      <stop
         style="stop-color:#d8b760;stop-opacity:1"
         offset="0"
         id="stop8464" />
      <stop
         id="stop8479"
         offset="0.23264481"
         style="stop-color:#000000;stop-opacity:1" />
      <stop
         style="stop-color:#d8b760;stop-opacity:1"
         offset="1"
         id="stop8466" />
    </linearGradient>
  </defs>
  <sodipodi:namedview
     id="base"
     pagecolor="#ffffff"
     bordercolor="#666666"
     borderopacity="1.0"
     inkscape:pageopacity="0.0"
     inkscape:pageshadow="2"
     inkscape:zoom="14.416667"
     inkscape:cx="48.796627"
     inkscape:cy="7.7246555"
     inkscape:document-units="px"
     inkscape:current-layer="layer1"
     showgrid="false"
     units="px"
     borderlayer="true"
     inkscape:showpageshadow="false"
     showborder="true"
     showguides="true"
     inkscape:guide-bbox="true"
     inkscape:window-width="1680"
     inkscape:window-height="995"
     inkscape:window-x="0"
     inkscape:window-y="27"
     inkscape:window-maximized="1">
    <sodipodi:guide
       position="17.479769,24"
       orientation="0,1"
       id="guide7289" />
    <sodipodi:guide
       position="17.479769,24"
       orientation="1,0"
       id="guide7291" />
  </sodipodi:namedview>
  <metadata
     id="metadata6791">
    <rdf:RDF>
      <cc:Work
         rdf:about="">
        <dc:format>image/svg+xml</dc:format>
        <dc:type
           rdf:resource="http://purl.org/dc/dcmitype/StillImage" />
        <dc:title />
      </cc:Work>
    </rdf:RDF>
  </metadata>
  <g
     inkscape:label="Calque 1"
     inkscape:groupmode="layer"
     id="layer1"
     transform="translate(0,-992.36216)">
    <path
       style="color:#000000;font-style:normal;font-variant:normal;font-weight:normal;font-stretch:normal;font-size:medium;line-height:normal;font-family:sans-serif;text-indent:0;text-align:start;text-decoration:none;text-decoration-line:none;text-decoration-style:solid;text-decoration-color:#000000;letter-spacing:normal;word-spacing:normal;text-transform:none;direction:ltr;block-progression:tb;writing-mode:lr-tb;baseline-shift:baseline;text-anchor:start;white-space:normal;clip-rule:nonzero;display:inline;overflow:visible;visibility:visible;opacity:1;isolation:auto;mix-blend-mode:normal;color-interpolation:sRGB;color-interpolation-filters:linearRGB;solid-color:#000000;solid-opacity:1;fill:#ffffff;fill-opacity:1;fill-rule:evenodd;stroke:#000000;stroke-width:1;stroke-linecap:butt;stroke-linejoin:miter;stroke-miterlimit:4;stroke-dasharray:none;stroke-dashoffset:0;stroke-opacity:1;color-rendering:auto;image-rendering:auto;shape-rendering:auto;text-rendering:auto;enable-background:accumulate"
       d="m 25.5821,1019.5096 c -1.75115,0 -3.50156,0.4518 -5.06932,1.3569 -2.04902,1.183 -3.5847,3.0253 -4.40327,5.1696 l -1.77019,0 0,2.3572 22.48644,0 0,-2.3572 -1.77018,0 c -0.81858,-2.1443 -2.35426,-3.9866 -4.40328,-5.1696 -1.56775,-0.9051 -3.31904,-1.3569 -5.0702,-1.3569 z"
       id="path17121"
       inkscape:connector-curvature="0"
       sodipodi:nodetypes="ssccccccss" />
    <path
       style="opacity:1;fill:url(#linearGradient8468);fill-opacity:1;fill-rule:evenodd;stroke:#000000;stroke-width:1;stroke-linecap:round;stroke-linejoin:round;stroke-miterlimit:4;stroke-dasharray:none;stroke-dashoffset:0;stroke-opacity:1"
       d="M 25.589844 29.617188 C 24.29318 29.617188 22.995844 29.918784 21.833984 30.521484 C 19.510274 31.726784 18.080078 33.954534 18.080078 36.365234 L 18.080078 57.882812 L 33.099609 57.882812 L 33.099609 36.365234 C 33.099609 33.954534 31.66746 31.726784 29.34375 30.521484 C 28.181895 29.918784 26.886508 29.617188 25.589844 29.617188 z M 25.582031 41.023438 A 2.8020611 2.8020608 0 0 1 28.382812 43.824219 A 2.8020611 2.8020608 0 0 1 25.582031 46.626953 A 2.8020611 2.8020608 0 0 1 22.779297 43.824219 A 2.8020611 2.8020608 0 0 1 25.582031 41.023438 z "
       transform="translate(0,992.36216)"
       id="path17112-8" />
    <path
       sodipodi:nodetypes="sscccs"
       inkscape:connector-curvature="0"
       id="path17165"
       d="m 25.83041,1024.0068 c -0.20496,-0.1063 -0.45746,-0.1063 -0.66241,0 -0.20495,0.1063 -0.3312,0.3028 -0.3312,0.5154 l 0.6624,3.4998 0.6624,-3.4998 c 0,-0.2126 -0.12625,-0.4091 -0.33119,-0.5154 z"
       style="opacity:1;fill:none;fill-opacity:1;fill-rule:evenodd;stroke:#ffffff;stroke-width:1;stroke-linecap:round;stroke-linejoin:round;stroke-miterlimit:4;stroke-dasharray:none;stroke-dashoffset:0;stroke-opacity:1" />
    <path
       style="opacity:1;fill:none;fill-opacity:1;fill-rule:evenodd;stroke:#ffffff;stroke-width:1;stroke-linecap:round;stroke-linejoin:round;stroke-miterlimit:4;stroke-dasharray:none;stroke-dashoffset:0;stroke-opacity:1"
       d="m 28.58382,1024.9818 c -0.12433,-0.1945 -0.34301,-0.3208 -0.57365,-0.3312 -0.23065,-0.01 -0.43822,0.097 -0.54453,0.2808 l -1.17624,3.3621 2.32356,-2.6997 c 0.1063,-0.1842 0.0952,-0.4174 -0.0292,-0.612 z"
       id="path17182"
       inkscape:connector-curvature="0"
       sodipodi:nodetypes="sscccs" />
    <path
       sodipodi:nodetypes="sscccs"
       inkscape:connector-curvature="0"
       id="path17188"
       d="m 30.51828,1027.2202 c -0.0104,-0.2307 -0.13666,-0.4493 -0.3312,-0.5737 -0.19454,-0.1243 -0.42781,-0.1354 -0.61194,-0.029 l -2.69971,2.3235 3.36212,-1.1762 c 0.18412,-0.1063 0.29115,-0.3139 0.28073,-0.5445 z"
       style="opacity:1;fill:none;fill-opacity:1;fill-rule:evenodd;stroke:#ffffff;stroke-width:1;stroke-linecap:round;stroke-linejoin:round;stroke-miterlimit:4;stroke-dasharray:none;stroke-dashoffset:0;stroke-opacity:1" />
    <path
       sodipodi:nodetypes="sscccs"
       inkscape:connector-curvature="0"
       id="path17192"
       d="m 22.4276,1025.0621 c 0.12434,-0.1945 0.34302,-0.3208 0.57366,-0.3312 0.23064,-0.01 0.43822,0.097 0.54452,0.2807 l 1.17625,3.3621 -2.32357,-2.6997 c -0.1063,-0.1841 -0.0952,-0.4174 0.0292,-0.6119 z"
       style="opacity:1;fill:none;fill-opacity:1;fill-rule:evenodd;stroke:#ffffff;stroke-width:1;stroke-linecap:round;stroke-linejoin:round;stroke-miterlimit:4;stroke-dasharray:none;stroke-dashoffset:0;stroke-opacity:1" />
    <path
       style="opacity:1;fill:none;fill-opacity:1;fill-rule:evenodd;stroke:#ffffff;stroke-width:1;stroke-linecap:round;stroke-linejoin:round;stroke-miterlimit:4;stroke-dasharray:none;stroke-dashoffset:0;stroke-opacity:1"
       d="m 20.49315,1027.3005 c 0.0104,-0.2307 0.13665,-0.4494 0.33119,-0.5737 0.19455,-0.1243 0.42782,-0.1354 0.61194,-0.029 l 2.69972,2.3235 -3.36212,-1.1762 c -0.18413,-0.1063 -0.29115,-0.3139 -0.28073,-0.5445 z"
       id="path17196"
       inkscape:connector-curvature="0"
       sodipodi:nodetypes="sscccs" />
    <path
       style="opacity:1;fill:#000000;fill-opacity:1;fill-rule:evenodd;stroke:none;stroke-width:0.1;stroke-linecap:round;stroke-linejoin:round;stroke-miterlimit:4;stroke-dasharray:none;stroke-opacity:1"
       d="M 17.984375 35.847656 L 17.984375 51.039062 L 33.177734 51.039062 L 33.177734 35.847656 L 17.984375 35.847656 z M 25.582031 41.023438 A 2.8020611 2.8020608 0 0 1 25.861328 41.037109 A 2.8020611 2.8020608 0 0 1 26.353516 41.134766 A 2.8020611 2.8020608 0 0 1 26.408203 41.148438 A 2.8020611 2.8020608 0 0 1 26.410156 41.148438 A 2.8020611 2.8020608 0 0 1 26.671875 41.244141 A 2.8020611 2.8020608 0 0 1 26.673828 41.246094 A 2.8020611 2.8020608 0 0 1 26.923828 41.365234 A 2.8020611 2.8020608 0 0 1 26.925781 41.367188 A 2.8020611 2.8020608 0 0 1 27.591797 41.875 A 2.8020611 2.8020608 0 0 1 27.753906 42.058594 A 2.8020611 2.8020608 0 0 1 27.775391 42.082031 A 2.8020611 2.8020608 0 0 1 27.777344 42.083984 A 2.8020611 2.8020608 0 0 1 27.939453 42.310547 A 2.8020611 2.8020608 0 0 1 27.939453 42.3125 A 2.8020611 2.8020608 0 0 1 28.078125 42.552734 A 2.8020611 2.8020608 0 0 1 28.078125 42.554688 A 2.8020611 2.8020608 0 0 1 28.193359 42.808594 A 2.8020611 2.8020608 0 0 1 28.193359 42.810547 A 2.8020611 2.8020608 0 0 1 28.28125 43.074219 A 2.8020611 2.8020608 0 0 1 28.28125 43.078125 A 2.8020611 2.8020608 0 0 1 28.341797 43.347656 A 2.8020611 2.8020608 0 0 1 28.341797 43.349609 A 2.8020611 2.8020608 0 0 1 28.382812 43.824219 A 2.8020611 2.8020608 0 0 1 28.369141 44.103516 A 2.8020611 2.8020608 0 0 1 28.257812 44.652344 A 2.8020611 2.8020608 0 0 1 25.582031 46.626953 A 2.8020611 2.8020608 0 0 1 25.300781 46.613281 A 2.8020611 2.8020608 0 0 1 25.025391 46.570312 A 2.8020611 2.8020608 0 0 1 25.023438 46.570312 A 2.8020611 2.8020608 0 0 1 24.490234 46.40625 A 2.8020611 2.8020608 0 0 1 24 46.138672 A 2.8020611 2.8020608 0 0 1 23.998047 46.136719 A 2.8020611 2.8020608 0 0 1 23.777344 45.96875 A 2.8020611 2.8020608 0 0 1 23.775391 45.966797 A 2.8020611 2.8020608 0 0 1 23.572266 45.777344 A 2.8020611 2.8020608 0 0 1 23.386719 45.566406 A 2.8020611 2.8020608 0 0 1 23.224609 45.339844 A 2.8020611 2.8020608 0 0 1 23.222656 45.337891 A 2.8020611 2.8020608 0 0 1 22.970703 44.841797 A 2.8020611 2.8020608 0 0 1 22.96875 44.839844 A 2.8020611 2.8020608 0 0 1 22.820312 44.302734 A 2.8020611 2.8020608 0 0 1 22.820312 44.300781 A 2.8020611 2.8020608 0 0 1 22.816406 44.271484 A 2.8020611 2.8020608 0 0 1 22.779297 43.824219 A 2.8020611 2.8020608 0 0 1 22.792969 43.544922 A 2.8020611 2.8020608 0 0 1 22.904297 42.996094 A 2.8020611 2.8020608 0 0 1 23.001953 42.732422 A 2.8020611 2.8020608 0 0 1 23.630859 41.814453 A 2.8020611 2.8020608 0 0 1 24.833984 41.125 A 2.8020611 2.8020608 0 0 1 25.582031 41.023438 z "
       transform="translate(0,992.36216)"
       id="rect17084-5" />
    <g
       style="opacity:1"
       id="g17127"
       transform="matrix(0.53775045,0,0,0.40775974,-440.59593,661.57518)">
      <path
         inkscape:connector-curvature="0"
         style="opacity:1;fill:none;fill-opacity:1;fill-rule:evenodd;stroke:#000000;stroke-width:2.13553858;stroke-linecap:round;stroke-linejoin:round;stroke-miterlimit:4;stroke-dasharray:2.13553866, 6.40661597;stroke-dashoffset:0;stroke-opacity:1"
         d="m 845.91035,954.8651 a 22.395967,39.284729 0 0 1 23.62646,-35.96792"
         id="path17114-9" />
      <path
         inkscape:connector-curvature="0"
         style="opacity:1;fill:none;fill-opacity:1;fill-rule:evenodd;stroke:#ffffff;stroke-width:2.13553858;stroke-linecap:round;stroke-linejoin:round;stroke-miterlimit:4;stroke-dasharray:2.13553866, 6.40661597;stroke-dashoffset:0;stroke-opacity:1"
         d="m 852.33865,930.35374 a 22.395967,39.284729 0 0 1 9.04708,-10.04725"
         id="path17125" />
    </g>
  </g>
</svg>
