<?xml version="1.0" encoding="UTF-8" standalone="no"?>
<!-- Created with Inkscape (http://www.inkscape.org/) -->

<svg
   xmlns:dc="http://purl.org/dc/elements/1.1/"
   xmlns:cc="http://creativecommons.org/ns#"
   xmlns:rdf="http://www.w3.org/1999/02/22-rdf-syntax-ns#"
   xmlns:svg="http://www.w3.org/2000/svg"
   xmlns="http://www.w3.org/2000/svg"
   xmlns:xlink="http://www.w3.org/1999/xlink"
   xmlns:sodipodi="http://sodipodi.sourceforge.net/DTD/sodipodi-0.dtd"
   xmlns:inkscape="http://www.inkscape.org/namespaces/inkscape"
   width="35.433071"
   height="35.433071"
   id="svg5840"
   version="1.1"
   inkscape:version="0.91 r"
   sodipodi:docname="choix.svg">
  <defs
     id="defs5842">
    <inkscape:path-effect
       effect="spiro"
       id="path-effect11166"
       is_visible="true" />
    <linearGradient
       inkscape:collect="always"
       id="linearGradient4183">
      <stop
         style="stop-color:#ffaaaa;stop-opacity:1;"
         offset="0"
         id="stop4185" />
      <stop
         style="stop-color:#ffaaaa;stop-opacity:0;"
         offset="1"
         id="stop4187" />
    </linearGradient>
    <linearGradient
       inkscape:collect="always"
       id="linearGradient5105">
      <stop
         style="stop-color:#ffffff;stop-opacity:1;"
         offset="0"
         id="stop5107" />
      <stop
         style="stop-color:#ffffff;stop-opacity:0;"
         offset="1"
         id="stop5109" />
    </linearGradient>
    <inkscape:path-effect
       effect="spiro"
       id="path-effect5079"
       is_visible="true" />
    <inkscape:path-effect
       is_visible="true"
       id="path-effect5075"
       effect="spiro" />
    <inkscape:path-effect
       is_visible="true"
       id="path-effect4309"
       effect="spiro" />
    <linearGradient
       inkscape:collect="always"
       id="linearGradient4274">
      <stop
         style="stop-color:#cccccc;stop-opacity:0.96470588"
         offset="0"
         id="stop4244" />
      <stop
         style="stop-color:#cccccc;stop-opacity:0;"
         offset="1"
         id="stop4246" />
    </linearGradient>
    <inkscape:path-effect
       effect="spiro"
       id="path-effect4228"
       is_visible="true" />
    <inkscape:path-effect
       effect="spiro"
       id="path-effect4228-6"
       is_visible="true" />
    <linearGradient
       inkscape:collect="always"
       xlink:href="#linearGradient4274"
       id="linearGradient5040"
       gradientUnits="userSpaceOnUse"
       x1="-122.72366"
       y1="1035.3229"
       x2="-101.86264"
       y2="1020.0357"
       gradientTransform="translate(168.29149,82.567522)" />
    <linearGradient
       inkscape:collect="always"
       xlink:href="#linearGradient4274"
       id="linearGradient5081"
       gradientUnits="userSpaceOnUse"
       x1="-122.72366"
       y1="1035.3229"
       x2="-101.86264"
       y2="1020.0357"
       gradientTransform="translate(63.350286,11.251402)" />
    <linearGradient
       inkscape:collect="always"
       xlink:href="#linearGradient4274"
       id="linearGradient5083"
       gradientUnits="userSpaceOnUse"
       x1="-122.72366"
       y1="1035.3229"
       x2="-101.86264"
       y2="1020.0357"
       gradientTransform="translate(63.350286,11.251402)" />
    <linearGradient
       inkscape:collect="always"
       xlink:href="#linearGradient5105"
       id="linearGradient5111"
       x1="-315.82847"
       y1="957.24939"
       x2="-299.3351"
       y2="957.24939"
       gradientUnits="userSpaceOnUse" />
    <linearGradient
       inkscape:collect="always"
       xlink:href="#linearGradient4183"
       id="linearGradient4189"
       x1="-142.38219"
       y1="1027.328"
       x2="-106.38766"
       y2="1027.328"
       gradientUnits="userSpaceOnUse"
       gradientTransform="translate(168.29149,82.567522)" />
  </defs>
  <sodipodi:namedview
     id="base"
     pagecolor="#ffffff"
     bordercolor="#666666"
     borderopacity="1.0"
     inkscape:pageopacity="0.0"
     inkscape:pageshadow="2"
     inkscape:zoom="0.41073441"
     inkscape:cx="-100.79229"
     inkscape:cy="-25.139267"
     inkscape:document-units="px"
     inkscape:current-layer="layer1"
     showgrid="false"
     inkscape:showpageshadow="false"
     borderlayer="true"
     units="cm"
     inkscape:window-width="1920"
     inkscape:window-height="1025"
     inkscape:window-x="0"
     inkscape:window-y="27"
     inkscape:window-maximized="1"
     inkscape:snap-smooth-nodes="true"
     inkscape:object-nodes="true"
     inkscape:snap-page="true"
     inkscape:snap-bbox="true"
     inkscape:object-paths="false"
     inkscape:snap-nodes="true"
     inkscape:snap-others="true"
     inkscape:bbox-nodes="true" />
  <metadata
     id="metadata5845">
    <rdf:RDF>
      <cc:Work
         rdf:about="">
        <dc:format>image/svg+xml</dc:format>
        <dc:type
           rdf:resource="http://purl.org/dc/dcmitype/StillImage" />
        <dc:title />
      </cc:Work>
    </rdf:RDF>
  </metadata>
  <g
     inkscape:label="Layer 1"
     inkscape:groupmode="layer"
     id="layer1"
     transform="translate(0,-1016.9278)">
    <path
       sodipodi:nodetypes="cc"
       inkscape:connector-curvature="0"
       id="path10594"
       d="m -234.87598,1121.0523 0,5.1468"
       style="fill:none;fill-rule:evenodd;stroke:#000000;stroke-width:1px;stroke-linecap:square;stroke-linejoin:miter;stroke-opacity:1" />
    <rect
       y="990.76978"
       x="-228.05537"
       height="31.889763"
       width="31.889763"
       id="rect4154"
       style="fill:none;fill-opacity:1;stroke:#000000;stroke-width:1;stroke-miterlimit:4;stroke-dasharray:none;enable-background:new" />
    <circle
       id="circle4156"
       style="fill:none;fill-opacity:1;stroke:#000000;stroke-width:1;stroke-miterlimit:4;stroke-dasharray:none;enable-background:new"
       cx="-212.11049"
       cy="1006.7146"
       r="7.7466846" />
    <path
       inkscape:connector-curvature="0"
       id="path4158"
       d="m -228.05537,990.76978 57.99575,-27.4392"
       style="fill:#666666;fill-rule:evenodd;stroke:#000000;stroke-width:1px;stroke-linecap:butt;stroke-linejoin:miter;stroke-opacity:1" />
    <path
       style="fill:#666666;fill-rule:evenodd;stroke:#000000;stroke-width:1px;stroke-linecap:butt;stroke-linejoin:miter;stroke-opacity:1"
       d="m -196.1656,990.76978 57.99574,-27.4392"
       id="path4160"
       inkscape:connector-curvature="0" />
    <path
       inkscape:connector-curvature="0"
       id="path4162"
       d="m -196.1656,1022.6596 57.99574,-27.43922"
       style="fill:#666666;fill-rule:evenodd;stroke:#000000;stroke-width:1px;stroke-linecap:butt;stroke-linejoin:miter;stroke-opacity:1" />
    <path
       inkscape:connector-curvature="0"
       id="path4164"
       d="m -170.05962,963.33058 31.88976,0"
       style="fill:none;fill-rule:evenodd;stroke:#000000;stroke-width:1px;stroke-linecap:square;stroke-linejoin:miter;stroke-opacity:1" />
    <path
       style="fill:none;fill-rule:evenodd;stroke:#000000;stroke-width:1px;stroke-linecap:butt;stroke-linejoin:miter;stroke-opacity:1"
       d="m -218.6348,1010.7146 c 4.59828,-2.1756 13.79485,-6.5267 13.79485,-6.5267"
       id="path4168"
       inkscape:connector-curvature="0"
       sodipodi:nodetypes="cc" />
    <path
       inkscape:connector-curvature="0"
       id="path4166"
       d="m -138.16986,995.22038 0,-31.8898"
       style="fill:none;fill-rule:evenodd;stroke:#000000;stroke-width:1px;stroke-linecap:butt;stroke-linejoin:miter;stroke-opacity:1" />
    <rect
       style="fill:none;fill-opacity:1;stroke:#000000;stroke-width:1;stroke-miterlimit:4;stroke-dasharray:none;enable-background:new"
       id="rect5824"
       width="31.889763"
       height="31.889763"
       x="84.420982"
       y="955.5307"
       transform="scale(-1,1)" />
    <circle
       r="7.7466846"
       cy="971.47552"
       cx="100.36586"
       style="fill:none;fill-opacity:1;stroke:#000000;stroke-width:1;stroke-miterlimit:4;stroke-dasharray:none;enable-background:new"
       id="path5826"
       transform="scale(-1,1)" />
    <path
       inkscape:connector-curvature="0"
       id="path4144"
       d="m -116.31075,955.53073 -9.99826,-11.10921"
       style="fill:#4d4d4d;fill-rule:evenodd;stroke:#000000;stroke-width:1px;stroke-linecap:butt;stroke-linejoin:miter;stroke-opacity:1"
       sodipodi:nodetypes="cc" />
    <path
       style="fill:#4d4d4d;fill-rule:evenodd;stroke:#000000;stroke-width:1px;stroke-linecap:square;stroke-linejoin:miter;stroke-opacity:1"
       d="m -94.419249,944.4215 -31.889761,0"
       id="path4148"
       inkscape:connector-curvature="0" />
    <path
       style="fill:#4d4d4d;fill-rule:evenodd;stroke:#000000;stroke-width:1px;stroke-linecap:butt;stroke-linejoin:miter;stroke-opacity:1"
       d="m -126.30901,976.31132 0,-31.8898"
       id="path4150"
       inkscape:connector-curvature="0" />
    <path
       sodipodi:nodetypes="cc"
       style="fill:#4d4d4d;fill-rule:evenodd;stroke:#000000;stroke-width:1px;stroke-linecap:butt;stroke-linejoin:miter;stroke-opacity:1"
       d="M -84.420985,955.53071 -94.419249,944.4215"
       id="path4196"
       inkscape:connector-curvature="0" />
    <path
       inkscape:connector-curvature="0"
       id="path4198"
       d="m -116.31075,987.42048 -9.99826,-11.10921"
       style="fill:#4d4d4d;fill-rule:evenodd;stroke:#000000;stroke-width:1px;stroke-linecap:butt;stroke-linejoin:miter;stroke-opacity:1"
       sodipodi:nodetypes="cc" />
    <path
       id="circle4206"
       style="fill:#ffffff;fill-opacity:1;stroke:#000000;stroke-width:1;stroke-miterlimit:4;stroke-dasharray:none;enable-background:new"
       d="m -95.01751,965.8714 19.577785,21.55366 c 1.524172,1.52417 2.39125,3.46084 2.391251,5.60003 10e-7,2.13919 -0.867075,4.07586 -2.26895,5.47774 -1.401874,1.40187 -3.338546,2.26897 -5.477735,2.26897 -2.139189,0 -4.075861,-0.8671 -5.600033,-2.39127 l -20.229918,-22.34069"
       inkscape:connector-curvature="0"
       sodipodi:nodetypes="ccssscc" />
    <path
       style="fill:#4d4d4d;fill-opacity:1;stroke:none;stroke-width:1;stroke-miterlimit:4;stroke-dasharray:none;enable-background:new"
       d="m 28.33695,1108.2972 -11.0888,0 0,31.8898 31.88976,0 0,-13.2723"
       id="rect4210"
       inkscape:connector-curvature="0"
       sodipodi:nodetypes="ccccc" />
    <circle
       r="7.7466846"
       cy="1124.2421"
       cx="33.193024"
       style="fill:none;fill-opacity:1;stroke:#000000;stroke-width:1;stroke-miterlimit:4;stroke-dasharray:none;enable-background:new"
       id="circle4278" />
    <path
       style="fill:url(#linearGradient5040);fill-opacity:1;fill-rule:evenodd;stroke:none;stroke-width:1px;stroke-linecap:butt;stroke-linejoin:miter;stroke-opacity:1"
       d="m 38.46917,1129.2307 c 0.425763,-0.4892 0.775259,-1.0393 1.173325,-1.5512 0.398065,-0.512 0.857194,-0.9954 1.434265,-1.2913 0.581115,-0.298 1.252132,-0.3883 1.904101,-0.3504 0.65197,0.038 1.290392,0.1984 1.917845,0.3796 0.627452,0.1811 1.25007,0.384 1.890791,0.5104 0.64072,0.1264 1.305857,0.1748 1.945843,0.045 1.093236,-0.2222 2.06149,-0.9896 2.527487,-2.0032 0.465997,-1.0136 0.418143,-2.2482 -0.124917,-3.2227 3.78072,-1.5071 6.743982,-4.9201 7.70533,-8.875 0.644024,-2.6494 0.412964,-5.5039 -0.6488,-8.0153 1.282566,-0.6386 2.349833,-1.7007 2.994694,-2.9802 0.644861,-1.2794 0.863736,-2.7691 0.614152,-4.18 -0.249584,-1.4109 -0.966242,-2.7351 -2.010903,-3.7157 -1.044662,-0.9805 -2.411528,-1.612 -3.835353,-1.7719 -2.152064,-0.2417 -4.298025,0.5649 -6.46229,0.4892 -2.61607,-0.091 -4.992507,-1.4456 -7.330065,-2.6237 -1.168779,-0.5891 -2.363059,-1.1449 -3.625717,-1.4895 -1.262659,-0.3445 -2.604391,-0.4717 -3.884038,-0.1968 -1.361343,0.2924 -2.619332,1.0459 -3.519572,2.1082 -0.90024,1.0622 -1.43728,2.4267 -1.50252,3.8176 -0.06524,1.3908 0.341719,2.7996 1.138577,3.9415 0.796857,1.1418 1.978791,2.0097 3.306785,2.4283 -2.030036,0.6687 -3.792544,2.1165 -4.84274,3.978 -0.955006,1.6928 -1.317638,3.7124 -1.011218,5.6317 0.306419,1.9193 1.279854,3.7255 2.714468,5.0368 -1.808826,1.0438 -3.281499,2.6602 -4.1528,4.5581 -0.816947,1.7795 -1.102589,3.8185 -0.687602,5.7322 0.414987,1.9136 1.551421,3.683 3.186542,4.7603 1.241639,0.818 2.745478,1.2246 4.23126,1.1672 1.872907,-0.072 3.722577,-0.9031 4.95307,-2.3169 z"
       id="path4226"
       inkscape:connector-curvature="0"
       inkscape:path-effect="#path-effect4228"
       inkscape:original-d="m 38.46917,1129.2307 c 1.03668,-0.7606 1.41169,-2.3702 2.60759,-2.8425 2.38126,-0.9405 5.45197,1.8827 7.65858,0.5843 1.6524,-0.9723 2.40257,-5.2259 2.40257,-5.2259 0,0 6.48373,-5.1526 7.70533,-8.875 0.83581,-2.5469 -0.6488,-8.0153 -0.6488,-8.0153 0,0 1.14466,-10.0226 -2.23741,-12.6478 -1.70649,-1.3246 -4.3136,0.7125 -6.46229,0.4892 -5.12342,-0.5325 -10.64941,-7.3056 -14.83982,-4.31 -3.33788,2.3861 -0.57673,12.2956 -0.57673,12.2956 0,0 -4.10213,2.0247 -4.84274,3.978 -1.2767,3.3673 1.70325,10.6685 1.70325,10.6685 0,0 -3.63921,2.5679 -4.1528,4.5581 -0.89837,3.4813 0.002,7.9057 2.49894,10.4925 1.01612,1.0527 2.77335,1.2902 4.23126,1.1672 1.81627,-0.1532 3.4835,-1.2386 4.95307,-2.3169 z"
       sodipodi:nodetypes="aaacacaaacacaaaa" />
    <path
       sodipodi:nodetypes="aaacacaaacacaaaa"
       inkscape:original-d="m 38.46917,1129.2307 c 1.03668,-0.7606 1.41169,-2.3702 2.60759,-2.8425 2.38126,-0.9405 5.45197,1.8827 7.65858,0.5843 1.6524,-0.9723 2.40257,-5.2259 2.40257,-5.2259 0,0 6.48373,-5.1526 7.70533,-8.875 0.83581,-2.5469 -0.6488,-8.0153 -0.6488,-8.0153 0,0 1.14466,-10.0226 -2.23741,-12.6478 -1.70649,-1.3246 -4.3136,0.7125 -6.46229,0.4892 -5.12342,-0.5325 -10.64941,-7.3056 -14.83982,-4.31 -3.33788,2.3861 -0.57673,12.2956 -0.57673,12.2956 0,0 -4.10213,2.0247 -4.84274,3.978 -1.2767,3.3673 1.70325,10.6685 1.70325,10.6685 0,0 -3.63921,2.5679 -4.1528,4.5581 -0.89837,3.4813 0.002,7.9057 2.49894,10.4925 1.01612,1.0527 2.77335,1.2902 4.23126,1.1672 1.81627,-0.1532 3.4835,-1.2386 4.95307,-2.3169 z"
       inkscape:path-effect="#path-effect4309"
       inkscape:connector-curvature="0"
       id="path4307"
       d="m 38.46917,1129.2307 c 0.425763,-0.4892 0.775259,-1.0393 1.173325,-1.5512 0.398065,-0.512 0.857194,-0.9954 1.434265,-1.2913 0.581115,-0.298 1.252132,-0.3883 1.904101,-0.3504 0.65197,0.038 1.290392,0.1984 1.917845,0.3796 0.627452,0.1811 1.25007,0.384 1.890791,0.5104 0.64072,0.1264 1.305857,0.1748 1.945843,0.045 1.093236,-0.2222 2.06149,-0.9896 2.527487,-2.0032 0.465997,-1.0136 0.418143,-2.2482 -0.124917,-3.2227 3.78072,-1.5071 6.743982,-4.9201 7.70533,-8.875 0.644024,-2.6494 0.412964,-5.5039 -0.6488,-8.0153 1.282566,-0.6386 2.349833,-1.7007 2.994694,-2.9802 0.644861,-1.2794 0.863736,-2.7691 0.614152,-4.18 -0.249584,-1.4109 -0.966242,-2.7351 -2.010903,-3.7157 -1.044662,-0.9805 -2.411528,-1.612 -3.835353,-1.7719 -2.152064,-0.2417 -4.298025,0.5649 -6.46229,0.4892 -2.61607,-0.091 -4.992507,-1.4456 -7.330065,-2.6237 -1.168779,-0.5891 -2.363059,-1.1449 -3.625717,-1.4895 -1.262659,-0.3445 -2.604391,-0.4717 -3.884038,-0.1968 -1.361343,0.2924 -2.619332,1.0459 -3.519572,2.1082 -0.90024,1.0622 -1.43728,2.4267 -1.50252,3.8176 -0.06524,1.3908 0.341719,2.7996 1.138577,3.9415 0.796857,1.1418 1.978791,2.0097 3.306785,2.4283 -2.030036,0.6687 -3.792544,2.1165 -4.84274,3.978 -0.955006,1.6928 -1.317638,3.7124 -1.011218,5.6317 0.306419,1.9193 1.279854,3.7255 2.714468,5.0368 -1.808826,1.0438 -3.281499,2.6602 -4.1528,4.5581 -0.816947,1.7795 -1.102589,3.8185 -0.687602,5.7322 0.414987,1.9136 1.551421,3.683 3.186542,4.7603 1.241639,0.818 2.745478,1.2246 4.23126,1.1672 1.872907,-0.072 3.722577,-0.9031 4.95307,-2.3169 z"
       style="fill:url(#linearGradient4189);fill-opacity:1;fill-rule:evenodd;stroke:none;stroke-width:1px;stroke-linecap:butt;stroke-linejoin:miter;stroke-opacity:1" />
    <rect
       transform="scale(-1,1)"
       y="959.68164"
       x="-17.622631"
       height="31.889763"
       width="31.889763"
       id="rect5049"
       style="fill:#4d4d4d;fill-opacity:1;stroke:none;stroke-width:1;stroke-miterlimit:4;stroke-dasharray:none;enable-background:new" />
    <circle
       transform="scale(-1,1)"
       id="circle5051"
       style="fill:#a25d06;fill-opacity:1;stroke:#000000;stroke-width:1;stroke-miterlimit:4;stroke-dasharray:none;enable-background:new"
       cx="-1.6777536"
       cy="975.62646"
       r="7.7466846" />
    <path
       sodipodi:nodetypes="ccssscc"
       inkscape:connector-curvature="0"
       d="m 7.0261036,970.02233 19.5777854,21.55366 c 1.524172,1.52417 2.39125,3.46084 2.391251,5.60003 1e-6,2.13919 -0.867075,4.07588 -2.26895,5.47778 -1.401874,1.4018 -3.338546,2.2689 -5.477735,2.2689 -2.139189,0 -4.075861,-0.8671 -5.600033,-2.3912 L -4.5814964,980.19077"
       style="fill:#a25d06;fill-opacity:1;stroke:#000000;stroke-width:1;stroke-miterlimit:4;stroke-dasharray:none;enable-background:new"
       id="path5063" />
    <path
       sodipodi:nodetypes="ccccc"
       inkscape:connector-curvature="0"
       id="path5065"
       d="m 7.6243788,948.57247 -31.8897708,0 9.99826,11.10917 31.889771,0 z"
       style="fill:#4d4d4d;fill-opacity:1;stroke:none;stroke-width:1;stroke-miterlimit:4;stroke-dasharray:none;enable-background:new" />
    <path
       style="fill:#4d4d4d;fill-opacity:1;stroke:none;stroke-width:1;stroke-miterlimit:4;stroke-dasharray:none;enable-background:new"
       d="m -14.267132,959.68164 -9.99826,-11.10917 0,31.88977 9.99826,11.10917 z"
       id="path5067"
       inkscape:connector-curvature="0"
       sodipodi:nodetypes="ccccc" />
    <path
       sodipodi:nodetypes="ccccc"
       inkscape:connector-curvature="0"
       id="path5069"
       d="m -76.604254,1036.981 -11.0888,0 0,31.8898 31.88976,0 0,-13.2723"
       style="fill:none;fill-opacity:1;stroke:#000000;stroke-width:1;stroke-miterlimit:4;stroke-dasharray:none;enable-background:new" />
    <circle
       id="circle5071"
       style="fill:none;fill-opacity:1;stroke:#000000;stroke-width:1;stroke-miterlimit:4;stroke-dasharray:none;enable-background:new"
       cx="-71.748177"
       cy="1052.9259"
       r="7.7466846" />
    <path
       sodipodi:nodetypes="aaacacaaacacaaaa"
       inkscape:original-d="m -66.472034,1057.9145 c 1.03668,-0.7606 1.41169,-2.3702 2.60759,-2.8425 2.38126,-0.9405 5.45197,1.8827 7.65858,0.5843 1.6524,-0.9723 2.40257,-5.2259 2.40257,-5.2259 0,0 6.48373,-5.1526 7.70533,-8.875 0.83581,-2.5469 -0.6488,-8.0153 -0.6488,-8.0153 0,0 1.14466,-10.0226 -2.23741,-12.6478 -1.70649,-1.3246 -4.3136,0.7125 -6.46229,0.4892 -5.12342,-0.5325 -10.64941,-7.3056 -14.83982,-4.31 -3.33788,2.3861 -0.57673,12.2956 -0.57673,12.2956 0,0 -4.10213,2.0247 -4.84274,3.978 -1.2767,3.3673 1.70325,10.6685 1.70325,10.6685 0,0 -3.63921,2.5679 -4.1528,4.5581 -0.89837,3.4813 0.002,7.9057 2.49894,10.4925 1.01612,1.0527 2.77335,1.2902 4.23126,1.1672 1.81627,-0.1532 3.4835,-1.2386 4.95307,-2.3169 z"
       inkscape:path-effect="#path-effect5075"
       inkscape:connector-curvature="0"
       id="path5073"
       d="m -66.472034,1057.9145 c 0.425763,-0.4892 0.775259,-1.0393 1.173325,-1.5512 0.398065,-0.512 0.857194,-0.9954 1.434265,-1.2913 0.581115,-0.298 1.252132,-0.3883 1.904101,-0.3504 0.65197,0.038 1.290392,0.1984 1.917845,0.3796 0.627452,0.1811 1.25007,0.384 1.890791,0.5104 0.64072,0.1264 1.305857,0.1748 1.945843,0.045 1.093236,-0.2222 2.06149,-0.9896 2.527487,-2.0032 0.465997,-1.0136 0.418143,-2.2482 -0.124917,-3.2227 3.78072,-1.5071 6.743982,-4.9201 7.70533,-8.875 0.644024,-2.6494 0.412964,-5.5039 -0.6488,-8.0153 1.282566,-0.6386 2.349833,-1.7007 2.994694,-2.9802 0.644861,-1.2794 0.863736,-2.7691 0.614152,-4.18 -0.249584,-1.4109 -0.966242,-2.7351 -2.010903,-3.7157 -1.044662,-0.9805 -2.411528,-1.612 -3.835353,-1.7719 -2.152064,-0.2417 -4.298025,0.5649 -6.46229,0.4892 -2.61607,-0.091 -4.992507,-1.4456 -7.330065,-2.6237 -1.168779,-0.5891 -2.363059,-1.1449 -3.625717,-1.4895 -1.262659,-0.3445 -2.604391,-0.4717 -3.884038,-0.1968 -1.361343,0.2924 -2.619332,1.0459 -3.519572,2.1082 -0.90024,1.0622 -1.43728,2.4267 -1.50252,3.8176 -0.06524,1.3908 0.341719,2.7996 1.138577,3.9415 0.796857,1.1418 1.978791,2.0097 3.306785,2.4283 -2.030036,0.6687 -3.792544,2.1165 -4.84274,3.978 -0.955006,1.6928 -1.317638,3.7124 -1.011218,5.6317 0.306419,1.9193 1.279854,3.7255 2.714468,5.0368 -1.808826,1.0438 -3.281499,2.6602 -4.1528,4.5581 -0.816947,1.7795 -1.102589,3.8185 -0.687602,5.7322 0.414987,1.9136 1.551421,3.683 3.186542,4.7603 1.241639,0.818 2.745478,1.2246 4.23126,1.1672 1.872907,-0.072 3.722577,-0.9031 4.95307,-2.3169 z"
       style="fill:url(#linearGradient5081);fill-opacity:1;fill-rule:evenodd;stroke:none;stroke-width:1px;stroke-linecap:butt;stroke-linejoin:miter;stroke-opacity:1" />
    <path
       style="fill:url(#linearGradient5083);fill-opacity:1;fill-rule:evenodd;stroke:none;stroke-width:1px;stroke-linecap:butt;stroke-linejoin:miter;stroke-opacity:1"
       d="m -66.472034,1057.9145 c 0.425763,-0.4892 0.775259,-1.0393 1.173325,-1.5512 0.398065,-0.512 0.857194,-0.9954 1.434265,-1.2913 0.581115,-0.298 1.252132,-0.3883 1.904101,-0.3504 0.65197,0.038 1.290392,0.1984 1.917845,0.3796 0.627452,0.1811 1.25007,0.384 1.890791,0.5104 0.64072,0.1264 1.305857,0.1748 1.945843,0.045 1.093236,-0.2222 2.06149,-0.9896 2.527487,-2.0032 0.465997,-1.0136 0.418143,-2.2482 -0.124917,-3.2227 3.78072,-1.5071 6.743982,-4.9201 7.70533,-8.875 0.644024,-2.6494 0.412964,-5.5039 -0.6488,-8.0153 1.282566,-0.6386 2.349833,-1.7007 2.994694,-2.9802 0.644861,-1.2794 0.863736,-2.7691 0.614152,-4.18 -0.249584,-1.4109 -0.966242,-2.7351 -2.010903,-3.7157 -1.044662,-0.9805 -2.411528,-1.612 -3.835353,-1.7719 -2.152064,-0.2417 -4.298025,0.5649 -6.46229,0.4892 -2.61607,-0.091 -4.992507,-1.4456 -7.330065,-2.6237 -1.168779,-0.5891 -2.363059,-1.1449 -3.625717,-1.4895 -1.262659,-0.3445 -2.604391,-0.4717 -3.884038,-0.1968 -1.361343,0.2924 -2.619332,1.0459 -3.519572,2.1082 -0.90024,1.0622 -1.43728,2.4267 -1.50252,3.8176 -0.06524,1.3908 0.341719,2.7996 1.138577,3.9415 0.796857,1.1418 1.978791,2.0097 3.306785,2.4283 -2.030036,0.6687 -3.792544,2.1165 -4.84274,3.978 -0.955006,1.6928 -1.317638,3.7124 -1.011218,5.6317 0.306419,1.9193 1.279854,3.7255 2.714468,5.0368 -1.808826,1.0438 -3.281499,2.6602 -4.1528,4.5581 -0.816947,1.7795 -1.102589,3.8185 -0.687602,5.7322 0.414987,1.9136 1.551421,3.683 3.186542,4.7603 1.241639,0.818 2.745478,1.2246 4.23126,1.1672 1.872907,-0.072 3.722577,-0.9031 4.95307,-2.3169 z"
       id="path5077"
       inkscape:connector-curvature="0"
       inkscape:path-effect="#path-effect5079"
       inkscape:original-d="m -66.472034,1057.9145 c 1.03668,-0.7606 1.41169,-2.3702 2.60759,-2.8425 2.38126,-0.9405 5.45197,1.8827 7.65858,0.5843 1.6524,-0.9723 2.40257,-5.2259 2.40257,-5.2259 0,0 6.48373,-5.1526 7.70533,-8.875 0.83581,-2.5469 -0.6488,-8.0153 -0.6488,-8.0153 0,0 1.14466,-10.0226 -2.23741,-12.6478 -1.70649,-1.3246 -4.3136,0.7125 -6.46229,0.4892 -5.12342,-0.5325 -10.64941,-7.3056 -14.83982,-4.31 -3.33788,2.3861 -0.57673,12.2956 -0.57673,12.2956 0,0 -4.10213,2.0247 -4.84274,3.978 -1.2767,3.3673 1.70325,10.6685 1.70325,10.6685 0,0 -3.63921,2.5679 -4.1528,4.5581 -0.89837,3.4813 0.002,7.9057 2.49894,10.4925 1.01612,1.0527 2.77335,1.2902 4.23126,1.1672 1.81627,-0.1532 3.4835,-1.2386 4.95307,-2.3169 z"
       sodipodi:nodetypes="aaacacaaacacaaaa" />
    <rect
       style="fill:#4d4d4d;fill-opacity:1;stroke:none;stroke-width:1;stroke-miterlimit:4;stroke-dasharray:none;enable-background:new"
       id="rect5085"
       width="31.889763"
       height="31.889763"
       x="-323.52667"
       y="941.30457" />
    <circle
       r="7.7466846"
       cy="957.24939"
       cx="-307.58179"
       style="fill:url(#linearGradient5111);fill-opacity:1;stroke:#000000;stroke-width:1;stroke-miterlimit:4;stroke-dasharray:none;enable-background:new"
       id="circle5087" />
    <path
       sodipodi:nodetypes="cc"
       inkscape:connector-curvature="0"
       id="path5097"
       d="m -314.10611,961.24939 c 4.59828,-2.1756 13.79485,-6.5267 13.79485,-6.5267"
       style="fill:none;fill-rule:evenodd;stroke:#000000;stroke-width:1px;stroke-linecap:butt;stroke-linejoin:miter;stroke-opacity:1" />
    <path
       style="fill:#289e9f;fill-opacity:1;stroke:none;stroke-width:1;stroke-miterlimit:4;stroke-dasharray:none;enable-background:new"
       d="m -233.64117,913.86537 -31.88977,0 -57.99573,27.4392 31.88977,0 z"
       id="path5101"
       inkscape:connector-curvature="0"
       sodipodi:nodetypes="ccccc" />
    <path
       sodipodi:nodetypes="ccccc"
       inkscape:connector-curvature="0"
       id="path5103"
       d="m -233.64117,913.86537 -57.99573,27.4392 -10e-6,31.88982 57.99573,-27.4392 z"
       style="fill:#289e9f;fill-opacity:1;stroke:none;stroke-width:1;stroke-miterlimit:4;stroke-dasharray:none;enable-background:new" />
    <rect
       y="1037.0668"
       x="-310.39972"
       height="31.889763"
       width="31.889763"
       id="rect10567"
       style="fill:#4d4d4d;fill-opacity:1;stroke:none;stroke-width:1;stroke-miterlimit:4;stroke-dasharray:none;enable-background:new" />
    <circle
       id="circle10569"
       style="fill:#ffffff;fill-opacity:1;stroke:#000000;stroke-width:1;stroke-miterlimit:4;stroke-dasharray:none;enable-background:new"
       cx="-294.45483"
       cy="1053.0116"
       r="7.7466846" />
    <g
       id="g10579"
       transform="matrix(0.8660254,-0.31969128,0.5,0.55372154,-674.68128,460.86084)">
      <rect
         y="1061.3839"
         x="-243.04341"
         height="31.889763"
         width="31.889763"
         id="rect10575"
         style="fill:#000000;fill-opacity:1;stroke:none;stroke-width:1;stroke-miterlimit:4;stroke-dasharray:none;enable-background:new" />
      <circle
         id="circle10577"
         style="fill:#ffffff;fill-opacity:1;stroke:none;stroke-width:0.86952585;stroke-miterlimit:4;stroke-dasharray:none;enable-background:new"
         cx="-227.09853"
         cy="1077.3287"
         r="6.7359424" />
    </g>
    <path
       style="fill:none;fill-opacity:1;stroke:#000000;stroke-width:0.96351266;stroke-miterlimit:4;stroke-dasharray:none;enable-background:new"
       d="m -310.90882,1140.4873 -27.61734,10.1949 -15.94493,-17.6581"
       id="rect10585"
       inkscape:connector-curvature="0"
       sodipodi:nodetypes="ccc" />
    <path
       style="fill:none;fill-rule:evenodd;stroke:#000000;stroke-width:1px;stroke-linecap:butt;stroke-linejoin:miter;stroke-opacity:1"
       d="m -338.52616,1143.7767 0,7.362"
       id="path10591"
       inkscape:connector-curvature="0"
       sodipodi:nodetypes="cc" />
    <path
       sodipodi:nodetypes="cc"
       inkscape:connector-curvature="0"
       id="path10596"
       d="m -311.36538,1133.5818 0,7.362"
       style="fill:none;fill-rule:evenodd;stroke:#000000;stroke-width:1px;stroke-linecap:butt;stroke-linejoin:miter;stroke-opacity:1" />
    <ellipse
       style="fill:#000000;stroke:#000000;stroke-width:1.28250659;stroke-miterlimit:4;stroke-dasharray:none"
       id="path10604"
       cx="-254.3615"
       cy="1027.2906"
       rx="1.3765104"
       ry="3.7659349" />
    <rect
       style="fill:#000000;fill-opacity:1;stroke:none;stroke-width:1;stroke-miterlimit:4;stroke-dasharray:none;enable-background:new"
       id="rect10610"
       width="30"
       height="30"
       x="-882.74316"
       y="-764.1073"
       transform="matrix(-0.5,-0.8660254,0.8660254,-0.5,0,0)" />
    <circle
       cy="376.93399"
       cx="-1082.6176"
       style="fill:#ffffff;fill-opacity:1;stroke:none;stroke-width:1;stroke-miterlimit:4;stroke-dasharray:none;enable-background:new"
       id="circle10612"
       transform="matrix(0.50000001,-0.8660254,0.86602541,0.49999999,0,0)"
       r="5" />
    <rect
       transform="matrix(0,-1,1,0,0,0)"
       y="-321.36005"
       x="-1219.8667"
       height="30"
       width="30"
       id="rect10614"
       style="fill:#000000;fill-opacity:1;stroke:none;stroke-width:1;stroke-miterlimit:4;stroke-dasharray:none;enable-background:new" />
    <circle
       r="5"
       transform="matrix(0.86602541,-0.49999999,0.50000001,0.8660254,0,0)"
       id="circle10616"
       style="fill:#ffffff;fill-opacity:1;stroke:none;stroke-width:1;stroke-miterlimit:4;stroke-dasharray:none;enable-background:new"
       cx="-867.7489"
       cy="890.26508" />
    <path
       sodipodi:nodetypes="cccccccc"
       inkscape:connector-curvature="0"
       id="path11168"
       d="m -216.61252,1124.5179 3.7996,7.2547 -2.6833,-10.4962 4.20091,10.6791 -1.75592,-11.0307 4.2351,10.0692 -2.41126,-10.9224 4.10339,9.7184"
       style="fill:none;fill-rule:evenodd;stroke:#666666;stroke-width:1;stroke-linecap:butt;stroke-linejoin:miter;stroke-miterlimit:4;stroke-dasharray:none;stroke-opacity:1" />
    <path
       style="fill:none;stroke:#000000;stroke-width:1.09536874;stroke-miterlimit:4;stroke-dasharray:none;stroke-opacity:1"
       d="m -209.43437,1106.1311 135.71434,0 0,45.6275 -146.64917,0"
       id="rect11191"
       inkscape:connector-curvature="0"
       sodipodi:nodetypes="cccc" />
    <path
       style="fill:none;fill-rule:evenodd;stroke:#000000;stroke-width:1px;stroke-linecap:butt;stroke-linejoin:miter;stroke-opacity:1"
       d="m -220.08125,1144.0783 0,7.362"
       id="path11196"
       inkscape:connector-curvature="0"
       sodipodi:nodetypes="cc" />
    <path
       style="fill:none;fill-opacity:1;stroke:#000000;stroke-width:1;stroke-miterlimit:4;stroke-dasharray:none;enable-background:new"
       d="m -194.84954,1136.7975 -25.44456,14.8463 -14.58188,-25.1219"
       id="rect11198"
       inkscape:connector-curvature="0"
       sodipodi:nodetypes="ccc" />
    <path
       sodipodi:nodetypes="cc"
       inkscape:connector-curvature="0"
       id="path11201"
       d="m -194.95714,1132.0273 0,4.555"
       style="fill:none;fill-rule:evenodd;stroke:#000000;stroke-width:1px;stroke-linecap:square;stroke-linejoin:miter;stroke-opacity:1" />
    <path
       style="fill:#784421;fill-rule:evenodd;stroke:#000000;stroke-width:1;stroke-linecap:butt;stroke-linejoin:miter;stroke-miterlimit:4;stroke-dasharray:none;stroke-opacity:1"
       d="m -195.71117,1104.4964 39.65174,-6.6663 c 0,0 3.443,-0.1208 4.6574,4.3877 1.20266,4.4654 -1.9928,5.5057 -1.9928,5.5057 l -39.715,6.6768"
       id="path10606"
       inkscape:connector-curvature="0"
       sodipodi:nodetypes="csccc" />
    <ellipse
       style="fill:#4d4d4d;stroke:#333333;stroke-width:1.00296926;stroke-miterlimit:4;stroke-dasharray:none"
       id="path10608"
       cx="-504.09845"
       cy="1063.2847"
       rx="3.1874087"
       ry="5.2993102"
       transform="matrix(0.98382517,-0.17913135,0.28489508,0.95855871,0,0)" />
    <path
       style="fill:none;fill-rule:evenodd;stroke:#666666;stroke-width:1;stroke-linecap:butt;stroke-linejoin:miter;stroke-miterlimit:4;stroke-dasharray:none;stroke-opacity:1"
       d="m -200.17854,1107.4753 3.7996,7.2547 -2.6833,-10.4962 4.20091,10.6791 -1.75592,-11.0307 4.2351,10.0692 -2.41126,-10.9224 4.10339,9.7184"
       id="path10602"
       inkscape:connector-curvature="0"
       sodipodi:nodetypes="cccccccc" />
    <path
       style="fill:none;fill-rule:evenodd;stroke:#000000;stroke-width:1;stroke-linecap:butt;stroke-linejoin:miter;stroke-miterlimit:4;stroke-dasharray:none;stroke-opacity:1"
       d="m -191.8603,1103.7641 c 0,0 4.80954,-0.1397 8.65849,2.0659 6.52464,3.7388 6.49386,5.6239 6.49386,5.6239"
       id="path10618"
       inkscape:connector-curvature="0"
       sodipodi:nodetypes="csc" />
    <path
       sodipodi:nodetypes="csc"
       inkscape:connector-curvature="0"
       id="path10620"
       d="m -179.26818,1101.7744 c 0,0 4.80955,-0.1397 8.65849,2.0659 6.52465,3.7388 6.49386,5.6239 6.49386,5.6239"
       style="fill:none;fill-rule:evenodd;stroke:#000000;stroke-width:1;stroke-linecap:butt;stroke-linejoin:miter;stroke-miterlimit:4;stroke-dasharray:none;stroke-opacity:1" />
    <path
       style="fill:none;fill-rule:evenodd;stroke:#000000;stroke-width:1;stroke-linecap:butt;stroke-linejoin:miter;stroke-miterlimit:4;stroke-dasharray:none;stroke-opacity:1"
       d="m -168.31357,1099.8652 c 0,0 4.81665,-0.1303 8.67128,1.9268 6.53429,3.4871 6.50345,5.2452 6.50345,5.2452"
       id="path11162"
       inkscape:connector-curvature="0"
       sodipodi:nodetypes="csc" />
    <path
       style="fill:none;fill-rule:evenodd;stroke:#666666;stroke-width:1px;stroke-linecap:butt;stroke-linejoin:miter;stroke-opacity:1"
       d="m -196.84098,1107.0584 c 1.76193,-1.3231 3.07905,-3.2283 3.69452,-5.344 0.61548,-2.1156 0.52585,-4.43 -0.25139,-6.4918 -0.64225,-1.7037 -1.72148,-3.2005 -2.75834,-4.6972 -1.03687,-1.4966 -2.05802,-3.0463 -2.55832,-4.7969 -0.5487,-1.92 -0.43464,-3.9832 0.0367,-5.9236 0.47136,-1.9404 1.2871,-3.7783 2.14051,-5.5836 0.8534,-1.8053 1.75124,-3.5964 2.40114,-5.4845 0.64991,-1.8882 1.04813,-3.8939 0.86477,-5.8823 -0.13448,-1.4583 -0.60117,-2.9187 -1.53717,-4.0451 -0.468,-0.5632 -1.04953,-1.0359 -1.71053,-1.3509 -0.66101,-0.3151 -1.40203,-0.4697 -2.13219,-0.4143 -0.78451,0.059 -1.54869,0.3639 -2.15931,0.8601 -0.61061,0.4961 -1.06496,1.1818 -1.28382,1.9375"
       id="path11164"
       inkscape:connector-curvature="0"
       sodipodi:nodetypes="caaaac"
       inkscape:path-effect="#path-effect11166"
       inkscape:original-d="m -196.84098,1107.0584 c 0,0 3.90928,-7.7535 3.44313,-11.8358 -0.4115,-3.6037 -4.81614,-5.9017 -5.31666,-9.4941 -1.08153,-7.7626 7.43277,-15.2932 5.44313,-22.874 -0.67006,-2.553 -2.74699,-5.6237 -5.37989,-5.8103 -1.4751,-0.1045 -3.44313,2.7976 -3.44313,2.7976" />
  </g>
</svg>
