<?xml version="1.0" encoding="UTF-8" standalone="no"?>
<!-- Created with Inkscape (http://www.inkscape.org/) -->

<svg
   xmlns:dc="http://purl.org/dc/elements/1.1/"
   xmlns:cc="http://creativecommons.org/ns#"
   xmlns:rdf="http://www.w3.org/1999/02/22-rdf-syntax-ns#"
   xmlns:svg="http://www.w3.org/2000/svg"
   xmlns="http://www.w3.org/2000/svg"
   xmlns:sodipodi="http://sodipodi.sourceforge.net/DTD/sodipodi-0.dtd"
   xmlns:inkscape="http://www.inkscape.org/namespaces/inkscape"
   width="26.64991mm"
   height="18.026171mm"
   viewBox="0 0 94.428821 63.872258"
   id="svg4385"
   version="1.1"
   inkscape:version="0.91 r"
   sodipodi:docname="selec-male.svg">
  <defs
     id="defs4387">
    <inkscape:path-effect
       effect="spiro"
       id="path-effect4228"
       is_visible="true" />
    <inkscape:path-effect
       is_visible="true"
       id="path-effect4309"
       effect="spiro" />
    <inkscape:path-effect
       is_visible="true"
       id="path-effect5075"
       effect="spiro" />
    <inkscape:path-effect
       effect="spiro"
       id="path-effect5079"
       is_visible="true" />
  </defs>
  <sodipodi:namedview
     id="base"
     pagecolor="#ffffff"
     bordercolor="#666666"
     borderopacity="1.0"
     inkscape:pageopacity="0.0"
     inkscape:pageshadow="2"
     inkscape:zoom="5.115673"
     inkscape:cx="25.512771"
     inkscape:cy="24.908111"
     inkscape:document-units="px"
     inkscape:current-layer="layer1"
     showgrid="false"
     fit-margin-top="0.5"
     fit-margin-left="0.5"
     fit-margin-bottom="0.5"
     fit-margin-right="0.5"
     inkscape:window-width="1680"
     inkscape:window-height="995"
     inkscape:window-x="0"
     inkscape:window-y="27"
     inkscape:window-maximized="1" />
  <metadata
     id="metadata4390">
    <rdf:RDF>
      <cc:Work
         rdf:about="">
        <dc:format>image/svg+xml</dc:format>
        <dc:type
           rdf:resource="http://purl.org/dc/dcmitype/StillImage" />
        <dc:title />
      </cc:Work>
    </rdf:RDF>
  </metadata>
  <g
     inkscape:label="Calque 1"
     inkscape:groupmode="layer"
     id="layer1"
     transform="translate(-244.82561,-448.08184)">
    <rect
       transform="scale(-1,1)"
       y="461.55719"
       x="-308.22137"
       height="31.889763"
       width="31.889763"
       id="rect5049"
       style="fill:#4d4d4d;fill-opacity:1;stroke:none;stroke-width:1;stroke-miterlimit:4;stroke-dasharray:none;enable-background:new" />
    <circle
       transform="scale(-1,1)"
       id="circle5051"
       style="fill:#a25d06;fill-opacity:1;stroke:#000000;stroke-width:1;stroke-miterlimit:4;stroke-dasharray:none;enable-background:new"
       cx="-292.27652"
       cy="477.50201"
       r="7.7466846" />
    <path
       sodipodi:nodetypes="ccssscc"
       inkscape:connector-curvature="0"
       d="m 297.62487,471.89789 19.57778,21.55366 c 1.52417,1.52417 2.39125,3.46084 2.39125,5.60003 0,2.13919 -0.86707,4.07588 -2.26895,5.47778 -1.40187,1.4018 -3.33854,2.2689 -5.47773,2.2689 -2.13919,0 -4.07586,-0.8671 -5.60004,-2.3912 l -20.22991,-22.34073"
       style="fill:#a25d06;fill-opacity:1;stroke:#000000;stroke-width:1;stroke-miterlimit:4;stroke-dasharray:none;enable-background:new"
       id="path5063" />
    <path
       sodipodi:nodetypes="ccccc"
       inkscape:connector-curvature="0"
       id="path5065"
       d="m 298.22314,450.44803 -31.88977,0 9.99826,11.10917 31.88977,0 z"
       style="fill:#4d4d4d;fill-opacity:1;stroke:none;stroke-width:1;stroke-miterlimit:4;stroke-dasharray:none;enable-background:new" />
    <path
       style="fill:#4d4d4d;fill-opacity:1;stroke:none;stroke-width:1;stroke-miterlimit:4;stroke-dasharray:none;enable-background:new"
       d="m 276.33163,461.5572 -9.99826,-11.10917 0,31.88977 9.99826,11.10917 z"
       id="path5067"
       inkscape:connector-curvature="0"
       sodipodi:nodetypes="ccccc" />
  </g>
</svg>
