<?xml version="1.0" encoding="UTF-8" standalone="no"?>
<!-- Created with Inkscape (http://www.inkscape.org/) -->

<svg
   xmlns:dc="http://purl.org/dc/elements/1.1/"
   xmlns:cc="http://creativecommons.org/ns#"
   xmlns:rdf="http://www.w3.org/1999/02/22-rdf-syntax-ns#"
   xmlns:svg="http://www.w3.org/2000/svg"
   xmlns="http://www.w3.org/2000/svg"
   xmlns:xlink="http://www.w3.org/1999/xlink"
   xmlns:sodipodi="http://sodipodi.sourceforge.net/DTD/sodipodi-0.dtd"
   xmlns:inkscape="http://www.inkscape.org/namespaces/inkscape"
   width="26.64991mm"
   height="18.026171mm"
   viewBox="0 0 94.428821 63.872258"
   id="svg4385"
   version="1.1"
   inkscape:version="0.91 r"
   sodipodi:docname="selec-smoke.svg">
  <defs
     id="defs4387">
    <inkscape:path-effect
       effect="spiro"
       id="path-effect4228"
       is_visible="true" />
    <inkscape:path-effect
       is_visible="true"
       id="path-effect4309"
       effect="spiro" />
    <inkscape:path-effect
       is_visible="true"
       id="path-effect5075"
       effect="spiro" />
    <inkscape:path-effect
       effect="spiro"
       id="path-effect5079"
       is_visible="true" />
    <linearGradient
       gradientTransform="translate(426.2043,-554.24684)"
       inkscape:collect="always"
       xlink:href="#linearGradient4183"
       id="linearGradient4189"
       x1="-142.38219"
       y1="1027.328"
       x2="-106.38766"
       y2="1027.328"
       gradientUnits="userSpaceOnUse" />
    <linearGradient
       inkscape:collect="always"
       id="linearGradient4183">
      <stop
         style="stop-color:#ffaaaa;stop-opacity:1;"
         offset="0"
         id="stop4185" />
      <stop
         style="stop-color:#ffaaaa;stop-opacity:0;"
         offset="1"
         id="stop4187" />
    </linearGradient>
    <inkscape:path-effect
       is_visible="true"
       id="path-effect4309-7"
       effect="spiro" />
    <linearGradient
       gradientTransform="translate(426.2043,-554.24684)"
       inkscape:collect="always"
       xlink:href="#linearGradient4274"
       id="linearGradient5040"
       gradientUnits="userSpaceOnUse"
       x1="-122.72366"
       y1="1035.3229"
       x2="-101.86264"
       y2="1020.0357" />
    <linearGradient
       inkscape:collect="always"
       id="linearGradient4274">
      <stop
         style="stop-color:#cccccc;stop-opacity:0.96470588"
         offset="0"
         id="stop4244" />
      <stop
         style="stop-color:#cccccc;stop-opacity:0;"
         offset="1"
         id="stop4246" />
    </linearGradient>
    <inkscape:path-effect
       effect="spiro"
       id="path-effect4228-3"
       is_visible="true" />
  </defs>
  <sodipodi:namedview
     id="base"
     pagecolor="#ffffff"
     bordercolor="#666666"
     borderopacity="1.0"
     inkscape:pageopacity="0.0"
     inkscape:pageshadow="2"
     inkscape:zoom="7.2346542"
     inkscape:cx="27.248289"
     inkscape:cy="45.358256"
     inkscape:document-units="px"
     inkscape:current-layer="layer1"
     showgrid="false"
     fit-margin-top="0.5"
     fit-margin-left="0.5"
     fit-margin-bottom="0.5"
     fit-margin-right="0.5"
     inkscape:window-width="1680"
     inkscape:window-height="995"
     inkscape:window-x="0"
     inkscape:window-y="27"
     inkscape:window-maximized="1" />
  <metadata
     id="metadata4390">
    <rdf:RDF>
      <cc:Work
         rdf:about="">
        <dc:format>image/svg+xml</dc:format>
        <dc:type
           rdf:resource="http://purl.org/dc/dcmitype/StillImage" />
        <dc:title />
      </cc:Work>
    </rdf:RDF>
  </metadata>
  <g
     inkscape:label="Calque 1"
     inkscape:groupmode="layer"
     id="layer1"
     transform="translate(-244.82561,-448.08184)">
    <path
       style="fill:#4d4d4d;fill-opacity:1;stroke:none;stroke-width:1;stroke-miterlimit:4;stroke-dasharray:none;enable-background:new"
       d="m 286.24976,471.48273 -11.0888,0 0,31.8898 31.88976,0 0,-13.2723"
       id="rect4210"
       inkscape:connector-curvature="0"
       sodipodi:nodetypes="ccccc" />
    <circle
       r="7.7466846"
       cy="487.42767"
       cx="291.10583"
       style="fill:none;fill-opacity:1;stroke:#000000;stroke-width:1;stroke-miterlimit:4;stroke-dasharray:none;enable-background:new"
       id="circle4278" />
    <path
       style="fill:url(#linearGradient5040);fill-opacity:1;fill-rule:evenodd;stroke:none;stroke-width:1px;stroke-linecap:butt;stroke-linejoin:miter;stroke-opacity:1"
       d="m 296.38198,492.41623 c 0.42576,-0.4892 0.77526,-1.03926 1.17332,-1.55125 0.39807,-0.51199 0.8572,-0.99531 1.43427,-1.29125 0.58112,-0.29801 1.25213,-0.38832 1.9041,-0.35037 0.65197,0.0379 1.29039,0.1984 1.91785,0.37953 0.62745,0.18112 1.25007,0.38403 1.89079,0.51045 0.64072,0.12642 1.30585,0.17478 1.94584,0.0447 1.09324,-0.22222 2.06149,-0.98963 2.52749,-2.00324 0.46599,-1.0136 0.41814,-2.24817 -0.12492,-3.22266 3.78072,-1.50706 6.74398,-4.92014 7.70533,-8.875 0.64402,-2.64943 0.41296,-5.50395 -0.6488,-8.0153 1.28257,-0.63864 2.34983,-1.70074 2.99469,-2.98019 0.64486,-1.27945 0.86374,-2.76915 0.61416,-4.18002 -0.24959,-1.41087 -0.96625,-2.73507 -2.01091,-3.71564 -1.04466,-0.98057 -2.41153,-1.61207 -3.83535,-1.77195 -2.15206,-0.24165 -4.29802,0.56491 -6.46229,0.4892 -2.61607,-0.0915 -4.99251,-1.44557 -7.33007,-2.62371 -1.16877,-0.58907 -2.36305,-1.14485 -3.62571,-1.48944 -1.26266,-0.34459 -2.60439,-0.47172 -3.88404,-0.19685 -1.36134,0.29242 -2.61933,1.04593 -3.51957,2.10815 -0.90024,1.06223 -1.43728,2.42675 -1.50252,3.81761 -0.0652,1.39087 0.34172,2.79966 1.13857,3.94149 0.79686,1.14183 1.9788,2.00979 3.30679,2.42835 -2.03004,0.66869 -3.79254,2.11647 -4.84274,3.978 -0.95501,1.69279 -1.31764,3.71236 -1.01122,5.63166 0.30642,1.91929 1.27986,3.72555 2.71447,5.03684 -1.80883,1.04377 -3.2815,2.66017 -4.1528,4.5581 -0.81695,1.77953 -1.10259,3.81854 -0.6876,5.73216 0.41498,1.91362 1.55142,3.68307 3.18654,4.76034 1.24164,0.81803 2.74548,1.22464 4.23126,1.1672 1.87291,-0.0724 3.72258,-0.90307 4.95307,-2.3169 z"
       id="path4226"
       inkscape:connector-curvature="0"
       inkscape:path-effect="#path-effect4228-3"
       inkscape:original-d="m 296.38198,492.41623 c 1.03668,-0.7606 1.41169,-2.3702 2.60759,-2.8425 2.38126,-0.9405 5.45197,1.8827 7.65858,0.5843 1.6524,-0.9723 2.40257,-5.2259 2.40257,-5.2259 0,0 6.48373,-5.1526 7.70533,-8.875 0.83581,-2.5469 -0.6488,-8.0153 -0.6488,-8.0153 0,0 1.14466,-10.0226 -2.23741,-12.6478 -1.70649,-1.3246 -4.3136,0.7125 -6.46229,0.4892 -5.12342,-0.5325 -10.64941,-7.3056 -14.83982,-4.31 -3.33788,2.3861 -0.57673,12.2956 -0.57673,12.2956 0,0 -4.10213,2.0247 -4.84274,3.978 -1.2767,3.3673 1.70325,10.6685 1.70325,10.6685 0,0 -3.63921,2.5679 -4.1528,4.5581 -0.89837,3.4813 0.002,7.9057 2.49894,10.4925 1.01612,1.0527 2.77335,1.2902 4.23126,1.1672 1.81627,-0.1532 3.4835,-1.2386 4.95307,-2.3169 z"
       sodipodi:nodetypes="aaacacaaacacaaaa" />
    <path
       sodipodi:nodetypes="aaacacaaacacaaaa"
       inkscape:original-d="m 296.38198,492.41623 c 1.03668,-0.7606 1.41169,-2.3702 2.60759,-2.8425 2.38126,-0.9405 5.45197,1.8827 7.65858,0.5843 1.6524,-0.9723 2.40257,-5.2259 2.40257,-5.2259 0,0 6.48373,-5.1526 7.70533,-8.875 0.83581,-2.5469 -0.6488,-8.0153 -0.6488,-8.0153 0,0 1.14466,-10.0226 -2.23741,-12.6478 -1.70649,-1.3246 -4.3136,0.7125 -6.46229,0.4892 -5.12342,-0.5325 -10.64941,-7.3056 -14.83982,-4.31 -3.33788,2.3861 -0.57673,12.2956 -0.57673,12.2956 0,0 -4.10213,2.0247 -4.84274,3.978 -1.2767,3.3673 1.70325,10.6685 1.70325,10.6685 0,0 -3.63921,2.5679 -4.1528,4.5581 -0.89837,3.4813 0.002,7.9057 2.49894,10.4925 1.01612,1.0527 2.77335,1.2902 4.23126,1.1672 1.81627,-0.1532 3.4835,-1.2386 4.95307,-2.3169 z"
       inkscape:path-effect="#path-effect4309-7"
       inkscape:connector-curvature="0"
       id="path4307"
       d="m 296.38198,492.41623 c 0.42576,-0.4892 0.77526,-1.03926 1.17332,-1.55125 0.39807,-0.51199 0.8572,-0.99531 1.43427,-1.29125 0.58112,-0.29801 1.25213,-0.38832 1.9041,-0.35037 0.65197,0.0379 1.29039,0.1984 1.91785,0.37953 0.62745,0.18112 1.25007,0.38403 1.89079,0.51045 0.64072,0.12642 1.30585,0.17478 1.94584,0.0447 1.09324,-0.22222 2.06149,-0.98963 2.52749,-2.00324 0.46599,-1.0136 0.41814,-2.24817 -0.12492,-3.22266 3.78072,-1.50706 6.74398,-4.92014 7.70533,-8.875 0.64402,-2.64943 0.41296,-5.50395 -0.6488,-8.0153 1.28257,-0.63864 2.34983,-1.70074 2.99469,-2.98019 0.64486,-1.27945 0.86374,-2.76915 0.61416,-4.18002 -0.24959,-1.41087 -0.96625,-2.73507 -2.01091,-3.71564 -1.04466,-0.98057 -2.41153,-1.61207 -3.83535,-1.77195 -2.15206,-0.24165 -4.29802,0.56491 -6.46229,0.4892 -2.61607,-0.0915 -4.99251,-1.44557 -7.33007,-2.62371 -1.16877,-0.58907 -2.36305,-1.14485 -3.62571,-1.48944 -1.26266,-0.34459 -2.60439,-0.47172 -3.88404,-0.19685 -1.36134,0.29242 -2.61933,1.04593 -3.51957,2.10815 -0.90024,1.06223 -1.43728,2.42675 -1.50252,3.81761 -0.0652,1.39087 0.34172,2.79966 1.13857,3.94149 0.79686,1.14183 1.9788,2.00979 3.30679,2.42835 -2.03004,0.66869 -3.79254,2.11647 -4.84274,3.978 -0.95501,1.69279 -1.31764,3.71236 -1.01122,5.63166 0.30642,1.91929 1.27986,3.72555 2.71447,5.03684 -1.80883,1.04377 -3.2815,2.66017 -4.1528,4.5581 -0.81695,1.77953 -1.10259,3.81854 -0.6876,5.73216 0.41498,1.91362 1.55142,3.68307 3.18654,4.76034 1.24164,0.81803 2.74548,1.22464 4.23126,1.1672 1.87291,-0.0724 3.72258,-0.90307 4.95307,-2.3169 z"
       style="fill:url(#linearGradient4189);fill-opacity:1;fill-rule:evenodd;stroke:none;stroke-width:1px;stroke-linecap:butt;stroke-linejoin:miter;stroke-opacity:1" />
  </g>
</svg>
