<?xml version="1.0" encoding="UTF-8" standalone="no"?>
<!-- Created with Inkscape (http://www.inkscape.org/) -->

<svg
   xmlns:dc="http://purl.org/dc/elements/1.1/"
   xmlns:cc="http://creativecommons.org/ns#"
   xmlns:rdf="http://www.w3.org/1999/02/22-rdf-syntax-ns#"
   xmlns:svg="http://www.w3.org/2000/svg"
   xmlns="http://www.w3.org/2000/svg"
   xmlns:xlink="http://www.w3.org/1999/xlink"
   xmlns:sodipodi="http://sodipodi.sourceforge.net/DTD/sodipodi-0.dtd"
   xmlns:inkscape="http://www.inkscape.org/namespaces/inkscape"
   width="160mm"
   height="230mm"
   viewBox="0 0 566.92915 814.96063"
   id="svg2"
   version="1.1"
   inkscape:version="0.91 r"
   sodipodi:docname="ivo-page-06.svg"
   inkscape:export-filename="ivo-page-03.png"
   inkscape:export-xdpi="150"
   inkscape:export-ydpi="150"
   enable-background="new">
  <defs
     id="defs4">
    <inkscape:path-effect
       effect="spiro"
       id="path-effect3487"
       is_visible="true" />
    <inkscape:path-effect
       effect="spiro"
       id="path-effect3398"
       is_visible="true" />
    <inkscape:path-effect
       effect="spiro"
       id="path-effect3387"
       is_visible="true" />
    <inkscape:path-effect
       effect="spiro"
       id="path-effect5358"
       is_visible="true" />
    <inkscape:path-effect
       effect="spiro"
       id="path-effect5347"
       is_visible="true" />
    <inkscape:path-effect
       effect="spiro"
       id="path-effect5117"
       is_visible="true" />
    <inkscape:path-effect
       effect="spiro"
       id="path-effect5113"
       is_visible="true" />
    <marker
       inkscape:isstock="true"
       style="overflow:visible"
       id="marker11563"
       refX="0"
       refY="0"
       orient="auto"
       inkscape:stockid="Arrow2Mend">
      <path
         transform="scale(-0.6,-0.6)"
         d="M 8.7185878,4.0337352 -2.2072895,0.01601326 8.7185884,-4.0017078 c -1.7454984,2.3720609 -1.7354408,5.6174519 -6e-7,8.035443 z"
         style="fill-rule:evenodd;stroke:black;stroke-width:0.625;stroke-linejoin:round;stroke-opacity:1"
         id="path11565"
         inkscape:connector-curvature="0" />
    </marker>
    <clipPath
       clipPathUnits="userSpaceOnUse"
       id="clipPath16399">
      <rect
         y="137.32275"
         x="300.04541"
         height="179.09723"
         width="253.43372"
         id="rect16401"
         style="fill:none;fill-opacity:1;fill-rule:evenodd;stroke:black;stroke-width:0.94474423;stroke-linecap:butt;stroke-linejoin:miter;stroke-miterlimit:4;stroke-dasharray:none;stroke-opacity:1" />
    </clipPath>
    <clipPath
       clipPathUnits="userSpaceOnUse"
       id="clipPath16692">
      <rect
         y="118.19205"
         x="-554.01508"
         height="169.8968"
         width="244.02025"
         id="rect16694"
         style="fill:none;fill-opacity:1;fill-rule:evenodd;stroke:black;stroke-width:0.90290731;stroke-linecap:butt;stroke-linejoin:miter;stroke-miterlimit:4;stroke-dasharray:none;stroke-opacity:1" />
    </clipPath>
    <inkscape:path-effect
       effect="spiro"
       id="path-effect5117-1"
       is_visible="true" />
    <inkscape:path-effect
       effect="spiro"
       id="path-effect5117-6"
       is_visible="true" />
    <inkscape:path-effect
       effect="spiro"
       id="path-effect5347-6"
       is_visible="true" />
    <inkscape:path-effect
       effect="spiro"
       id="path-effect5347-4"
       is_visible="true" />
    <linearGradient
       inkscape:collect="always"
       xlink:href="#linearGradient5622"
       id="linearGradient5628"
       x1="26.744846"
       y1="644.45782"
       x2="519.03894"
       y2="533.36707"
       gradientUnits="userSpaceOnUse"
       gradientTransform="matrix(0.98623757,0,0,2.4225598,-562.75693,-1133.9588)" />
    <linearGradient
       inkscape:collect="always"
       id="linearGradient5622">
      <stop
         style="stop-color:#1d8d7e;stop-opacity:1"
         offset="0"
         id="stop5624" />
      <stop
         style="stop-color:#530053;stop-opacity:1"
         offset="1"
         id="stop5626" />
    </linearGradient>
    <filter
       inkscape:collect="always"
       style="color-interpolation-filters:sRGB"
       id="filter7688">
      <feBlend
         inkscape:collect="always"
         mode="screen"
         in2="BackgroundImage"
         id="feBlend7690" />
    </filter>
  </defs>
  <sodipodi:namedview
     id="base"
     pagecolor="#ffffff"
     bordercolor="#666666"
     borderopacity="1.0"
     inkscape:pageopacity="0.0"
     inkscape:pageshadow="2"
     inkscape:zoom="0.64966934"
     inkscape:cx="243.85847"
     inkscape:cy="452.73568"
     inkscape:document-units="px"
     inkscape:current-layer="layer3"
     showgrid="false"
     inkscape:window-width="1680"
     inkscape:window-height="995"
     inkscape:window-x="0"
     inkscape:window-y="27"
     inkscape:window-maximized="1"
     inkscape:snap-bbox="true"
     inkscape:bbox-nodes="true"
     inkscape:bbox-paths="true"
     inkscape:object-nodes="true"
     inkscape:snap-global="false"
     showguides="true"
     inkscape:guide-bbox="true">
    <inkscape:grid
       type="xygrid"
       id="grid4572" />
  </sodipodi:namedview>
  <metadata
     id="metadata7">
    <rdf:RDF>
      <cc:Work
         rdf:about="">
        <dc:format>image/svg+xml</dc:format>
        <dc:type
           rdf:resource="http://purl.org/dc/dcmitype/StillImage" />
        <dc:title />
      </cc:Work>
    </rdf:RDF>
  </metadata>
  <g
     inkscape:groupmode="layer"
     id="layer4"
     inkscape:label="scans"
     style="display:inline">
    <image
       sodipodi:absref="/media/ludi/data/work/medor.work.samples/bug/img/ivo/page/../case10.jpeg"
       xlink:href="../case10.jpeg"
       y="63.243313"
       x="28.439257"
       id="image5767"
       preserveAspectRatio="none"
       height="366.71469"
       width="514.43152" />
    <image
       sodipodi:absref="/media/ludi/data/work/medor.work.samples/bug/img/ivo/page/../case11.jpeg"
       xlink:href="../case11.jpeg"
       y="403.82431"
       x="31.08308"
       id="image5829"
       preserveAspectRatio="none"
       height="355.26205"
       width="499.19824" />
  </g>
  <g
     inkscape:groupmode="layer"
     id="layer2"
     inkscape:label="masques"
     style="display:inline;opacity:1">
    <path
       style="color:#000000;clip-rule:nonzero;display:inline;overflow:visible;visibility:visible;opacity:1;isolation:auto;mix-blend-mode:normal;color-interpolation:sRGB;color-interpolation-filters:linearRGB;solid-color:#000000;solid-opacity:1;fill:#ffffff;fill-opacity:1;fill-rule:evenodd;stroke:none;stroke-width:1px;stroke-linecap:butt;stroke-linejoin:miter;stroke-miterlimit:4;stroke-dasharray:none;stroke-dashoffset:0;stroke-opacity:1;color-rendering:auto;image-rendering:auto;shape-rendering:auto;text-rendering:auto;enable-background:accumulate"
       d="m 59.039164,89.38922 11.521466,-12.344419 409.83499,2.468885 41.14809,46.908824 -13.99034,44.43994 -190.92716,1.64592 -32.91847,2.46889 -13.99035,21.39701 -185.989372,0 -17.282198,-24.68886 -11.521465,-4.93777 4.114809,-77.35842 z"
       id="path3385"
       inkscape:path-effect="#path-effect3387"
       inkscape:original-d="m 59.039164,89.38922 11.521466,-12.344419 409.83499,2.468885 41.14809,46.908824 -13.99034,44.43994 -190.92716,1.64592 -32.91847,2.46889 -13.99035,21.39701 -185.989372,0 -17.282198,-24.68886 -11.521465,-4.93777 z"
       inkscape:connector-curvature="0" />
    <path
       style="color:#000000;clip-rule:nonzero;display:inline;overflow:visible;visibility:visible;opacity:1;isolation:auto;mix-blend-mode:normal;color-interpolation:sRGB;color-interpolation-filters:linearRGB;solid-color:#000000;solid-opacity:1;fill:#ffffff;fill-opacity:1;fill-rule:evenodd;stroke:none;stroke-width:1px;stroke-linecap:butt;stroke-linejoin:miter;stroke-miterlimit:4;stroke-dasharray:none;stroke-dashoffset:0;stroke-opacity:1;color-rendering:auto;image-rendering:auto;shape-rendering:auto;text-rendering:auto;enable-background:accumulate"
       d="m 62.107805,432.86017 34.420036,-8.00467 399.432459,5.60326 12.80746,28.81678 3.20186,19.21118 -6.40373,32.8191 15.20886,45.62656 -3.80222,6.80396 c -90.31151,1.63465 -180.65743,1.36774 -270.9577,-0.80048 -64.8044,-1.55603 -129.58528,-4.09123 -194.313081,-7.60442 L 62.107805,432.86017 Z"
       id="path3396"
       inkscape:path-effect="#path-effect3398"
       inkscape:original-d="m 62.107805,432.86017 34.420036,-8.00467 399.432459,5.60326 12.80746,28.81678 3.20186,19.21118 -6.40373,32.8191 15.20886,45.62656 -3.80222,6.80396 -270.9577,-0.80048 -194.313081,-7.60442 z"
       inkscape:connector-curvature="0" />
  </g>
  <g
     inkscape:groupmode="layer"
     id="layer5"
     inkscape:label="caches"
     style="display:inline">
    <rect
       style="opacity:1;fill:#ffffff;fill-opacity:1;fill-rule:evenodd;stroke:none;stroke-width:1;stroke-linecap:butt;stroke-linejoin:miter;stroke-miterlimit:4;stroke-dasharray:none;stroke-dashoffset:0;stroke-opacity:1"
       id="rect4734"
       width="510.7157"
       height="84.985657"
       x="26.431526"
       y="50.468685" />
    <rect
       style="opacity:1;fill:#ffffff;fill-opacity:1;fill-rule:evenodd;stroke:none;stroke-width:1;stroke-linecap:butt;stroke-linejoin:miter;stroke-miterlimit:4;stroke-dasharray:none;stroke-dashoffset:0;stroke-opacity:1"
       id="rect4736"
       width="510.7157"
       height="109.03821"
       x="28.863054"
       y="401.68835" />
    <path
       style="color:#000000;clip-rule:nonzero;display:inline;overflow:visible;visibility:visible;opacity:1;isolation:auto;mix-blend-mode:normal;color-interpolation:sRGB;color-interpolation-filters:linearRGB;solid-color:#000000;solid-opacity:1;fill:#ffffff;fill-opacity:1;fill-rule:evenodd;stroke:none;stroke-width:1;stroke-linecap:butt;stroke-linejoin:miter;stroke-miterlimit:4;stroke-dasharray:none;stroke-dashoffset:0;stroke-opacity:1;color-rendering:auto;image-rendering:auto;shape-rendering:auto;text-rendering:auto;enable-background:accumulate"
       d="m 364.03602,181.13971 c 0,0 1.66365,0.75935 1.06297,1.34644 -0.60068,0.58709 -1.48817,1.41731 -4.03933,2.62202 -0.83304,0.39338 6.80309,2.83462 6.80309,2.83462 l 154.09701,-3.18894 16.90142,-55.91288 z"
       id="path3485"
       inkscape:connector-curvature="0"
       sodipodi:nodetypes="czscccc" />
  </g>
  <g
     inkscape:groupmode="layer"
     id="layer3"
     inkscape:label="txt"
     style="display:inline">
    <flowRoot
       xml:space="preserve"
       id="flowRoot4741"
       style="font-style:normal;font-weight:normal;font-size:40px;line-height:125%;font-family:sans-serif;text-align:center;letter-spacing:0px;word-spacing:0px;text-anchor:middle;display:inline;fill:black;fill-opacity:1;stroke:none;stroke-width:0.3;stroke-linecap:butt;stroke-linejoin:miter;stroke-opacity:1;stroke-miterlimit:4;stroke-dasharray:none"
       transform="translate(-4.5576,109.81638)"><flowRegion
         id="flowRegion4743"><rect
           id="rect4745"
           width="269.34778"
           height="123.41758"
           x="49.717148"
           y="24.550047"
           style="text-align:center;text-anchor:middle;stroke-width:0.3;stroke-miterlimit:4;stroke-dasharray:none" /></flowRegion><flowPara
         style="font-style:italic;font-variant:normal;font-weight:normal;font-stretch:normal;font-size:15px;font-family:Arapey;-inkscape-font-specification:Arapey;text-align:center;text-anchor:middle;fill:black;stroke:black;stroke-opacity:1;stroke-width:0.3;stroke-miterlimit:4;stroke-dasharray:none;stroke-linejoin:round;stroke-linecap:round"
         id="flowPara3384">Tout dépend du nombre de votes à contrôler.</flowPara><flowPara
         style="font-style:italic;font-variant:normal;font-weight:normal;font-stretch:normal;font-size:15px;font-family:Arapey;-inkscape-font-specification:Arapey;text-align:center;text-anchor:middle;fill:black;stroke:black;stroke-opacity:1;stroke-width:0.3;stroke-miterlimit:4;stroke-dasharray:none;stroke-linejoin:round;stroke-linecap:round"
         id="flowPara8936">  Un individu peut vérifier quelques centaines</flowPara><flowPara
         style="font-style:italic;font-variant:normal;font-weight:normal;font-stretch:normal;font-size:15px;font-family:Arapey;-inkscape-font-specification:Arapey;text-align:center;text-anchor:middle;fill:black;stroke:black;stroke-opacity:1;stroke-width:0.3;stroke-miterlimit:4;stroke-dasharray:none;stroke-linejoin:round;stroke-linecap:round"
         id="flowPara8938">de bulletins mais pas des millions. </flowPara></flowRoot>    <flowRoot
       transform="translate(15.751528,492.11975)"
       style="font-style:normal;font-weight:normal;font-size:40px;line-height:125%;font-family:sans-serif;text-align:center;letter-spacing:0px;word-spacing:0px;text-anchor:middle;display:inline;fill:#000000;fill-opacity:1;stroke:none;stroke-width:0.3;stroke-linecap:butt;stroke-linejoin:miter;stroke-opacity:1;stroke-miterlimit:4;stroke-dasharray:none"
       id="flowRoot4722"
       xml:space="preserve"><flowRegion
         id="flowRegion4724"><rect
           y="24.550047"
           x="49.717148"
           height="172.32443"
           width="432.1033"
           id="rect4726"
           style="text-align:center;text-anchor:middle;stroke-width:0.3;stroke-miterlimit:4;stroke-dasharray:none" /></flowRegion><flowPara
         style="font-style:italic;font-variant:normal;font-weight:normal;font-stretch:normal;font-size:15px;font-family:Arapey;-inkscape-font-specification:'Arapey Italic';text-align:center;text-anchor:middle;fill:#000000;stroke:black;stroke-opacity:1;stroke-width:0.3;stroke-miterlimit:4;stroke-dasharray:none"
         id="flowPara3465">Le contrôle est donc partagé entre de nombreux assesseurs,</flowPara><flowPara
         style="font-style:italic;font-variant:normal;font-weight:normal;font-stretch:normal;font-size:15px;font-family:Arapey;-inkscape-font-specification:'Arapey Italic';text-align:center;text-anchor:middle;fill:#000000;stroke:black;stroke-opacity:1;stroke-width:0.3;stroke-miterlimit:4;stroke-dasharray:none"
         id="flowPara4300">dont ce n’est pas le métier et qui peuvent être plus facilement manipulés. </flowPara></flowRoot>  </g>
  <g
     inkscape:groupmode="layer"
     id="layer11"
     inkscape:label="color"
     style="filter:url(#filter7688)"
     sodipodi:insensitive="true">
    <rect
       style="opacity:1;fill:url(#linearGradient5628);fill-opacity:1;fill-rule:evenodd;stroke:none;stroke-width:1;stroke-linecap:round;stroke-linejoin:round;stroke-miterlimit:4;stroke-dasharray:none;stroke-dashoffset:0;stroke-opacity:1;filter:url(#filter5636)"
       id="rect5620"
       width="510.71893"
       height="742.87939"
       x="-535.69116"
       y="33.859886"
       transform="scale(-1,1)" />
  </g>
</svg>
