<?xml version="1.0" encoding="UTF-8" standalone="no"?>
<!-- Created with Inkscape (http://www.inkscape.org/) -->

<svg
   xmlns:dc="http://purl.org/dc/elements/1.1/"
   xmlns:cc="http://creativecommons.org/ns#"
   xmlns:rdf="http://www.w3.org/1999/02/22-rdf-syntax-ns#"
   xmlns:svg="http://www.w3.org/2000/svg"
   xmlns="http://www.w3.org/2000/svg"
   xmlns:xlink="http://www.w3.org/1999/xlink"
   xmlns:sodipodi="http://sodipodi.sourceforge.net/DTD/sodipodi-0.dtd"
   xmlns:inkscape="http://www.inkscape.org/namespaces/inkscape"
   width="160mm"
   height="230mm"
   viewBox="0 0 566.92915 814.96063"
   id="svg2"
   version="1.1"
   inkscape:version="0.91 r"
   sodipodi:docname="ivo-page-14.svg"
   inkscape:export-filename="ivo-page-03.png"
   inkscape:export-xdpi="150"
   inkscape:export-ydpi="150"
   enable-background="new">
  <defs
     id="defs4">
    <inkscape:path-effect
       effect="spiro"
       id="path-effect8119"
       is_visible="true" />
    <inkscape:path-effect
       effect="spiro"
       id="path-effect5358"
       is_visible="true" />
    <inkscape:path-effect
       effect="spiro"
       id="path-effect5347"
       is_visible="true" />
    <inkscape:path-effect
       effect="spiro"
       id="path-effect5117"
       is_visible="true" />
    <inkscape:path-effect
       effect="spiro"
       id="path-effect5113"
       is_visible="true" />
    <marker
       inkscape:isstock="true"
       style="overflow:visible"
       id="marker11563"
       refX="0"
       refY="0"
       orient="auto"
       inkscape:stockid="Arrow2Mend">
      <path
         transform="scale(-0.6,-0.6)"
         d="M 8.7185878,4.0337352 -2.2072895,0.01601326 8.7185884,-4.0017078 c -1.7454984,2.3720609 -1.7354408,5.6174519 -6e-7,8.035443 z"
         style="fill-rule:evenodd;stroke:black;stroke-width:0.625;stroke-linejoin:round;stroke-opacity:1"
         id="path11565"
         inkscape:connector-curvature="0" />
    </marker>
    <clipPath
       clipPathUnits="userSpaceOnUse"
       id="clipPath16399">
      <rect
         y="137.32275"
         x="300.04541"
         height="179.09723"
         width="253.43372"
         id="rect16401"
         style="fill:none;fill-opacity:1;fill-rule:evenodd;stroke:black;stroke-width:0.94474423;stroke-linecap:butt;stroke-linejoin:miter;stroke-miterlimit:4;stroke-dasharray:none;stroke-opacity:1" />
    </clipPath>
    <clipPath
       clipPathUnits="userSpaceOnUse"
       id="clipPath16692">
      <rect
         y="118.19205"
         x="-554.01508"
         height="169.8968"
         width="244.02025"
         id="rect16694"
         style="fill:none;fill-opacity:1;fill-rule:evenodd;stroke:black;stroke-width:0.90290731;stroke-linecap:butt;stroke-linejoin:miter;stroke-miterlimit:4;stroke-dasharray:none;stroke-opacity:1" />
    </clipPath>
    <inkscape:path-effect
       effect="spiro"
       id="path-effect5117-1"
       is_visible="true" />
    <inkscape:path-effect
       effect="spiro"
       id="path-effect5117-6"
       is_visible="true" />
    <inkscape:path-effect
       effect="spiro"
       id="path-effect5358-0"
       is_visible="true" />
    <linearGradient
       inkscape:collect="always"
       xlink:href="#linearGradient5622"
       id="linearGradient5628"
       x1="26.744846"
       y1="644.45782"
       x2="519.03894"
       y2="533.36707"
       gradientUnits="userSpaceOnUse"
       gradientTransform="matrix(0.98623757,0,0,2.4225598,-563.03826,-1128.3805)" />
    <linearGradient
       inkscape:collect="always"
       id="linearGradient5622">
      <stop
         style="stop-color:#e925c0;stop-opacity:1"
         offset="0"
         id="stop5624" />
      <stop
         style="stop-color:#530053;stop-opacity:1"
         offset="1"
         id="stop5626" />
    </linearGradient>
    <filter
       inkscape:collect="always"
       style="color-interpolation-filters:sRGB"
       id="filter6080">
      <feBlend
         inkscape:collect="always"
         mode="screen"
         in2="BackgroundImage"
         id="feBlend6082" />
    </filter>
  </defs>
  <sodipodi:namedview
     id="base"
     pagecolor="#ffffff"
     bordercolor="#666666"
     borderopacity="1.0"
     inkscape:pageopacity="0.0"
     inkscape:pageshadow="2"
     inkscape:zoom="1.2149483"
     inkscape:cx="278.81709"
     inkscape:cy="600.45715"
     inkscape:document-units="px"
     inkscape:current-layer="layer3"
     showgrid="false"
     inkscape:window-width="1440"
     inkscape:window-height="844"
     inkscape:window-x="0"
     inkscape:window-y="27"
     inkscape:window-maximized="1"
     inkscape:snap-bbox="true"
     inkscape:bbox-nodes="true"
     inkscape:bbox-paths="true"
     inkscape:object-nodes="true"
     inkscape:snap-global="false"
     showguides="true"
     inkscape:guide-bbox="true">
    <inkscape:grid
       type="xygrid"
       id="grid4572" />
  </sodipodi:namedview>
  <metadata
     id="metadata7">
    <rdf:RDF>
      <cc:Work
         rdf:about="">
        <dc:format>image/svg+xml</dc:format>
        <dc:type
           rdf:resource="http://purl.org/dc/dcmitype/StillImage" />
        <dc:title />
      </cc:Work>
    </rdf:RDF>
  </metadata>
  <g
     inkscape:groupmode="layer"
     id="layer4"
     inkscape:label="scans"
     style="display:inline">
    <image
       sodipodi:absref="/home/pierre/bug/img/ivo/page/../case26.jpeg"
       xlink:href="../case26.jpeg"
       y="60.27301"
       x="36.101494"
       id="image7106"
       preserveAspectRatio="none"
       height="352.42291"
       width="500" />
  </g>
  <g
     inkscape:groupmode="layer"
     id="layer2"
     inkscape:label="masques"
     style="display:inline;opacity:1">
    <path
       style="color:black;clip-rule:nonzero;display:inline;overflow:visible;visibility:visible;opacity:1;isolation:auto;mix-blend-mode:normal;color-interpolation:sRGB;color-interpolation-filters:linearRGB;solid-color:black;solid-opacity:1;fill:white;fill-opacity:1;fill-rule:evenodd;stroke:none;stroke-width:1px;stroke-linecap:butt;stroke-linejoin:miter;stroke-miterlimit:4;stroke-dasharray:none;stroke-dashoffset:0;stroke-opacity:1;color-rendering:auto;image-rendering:auto;shape-rendering:auto;text-rendering:auto;enable-background:accumulate"
       d="m 164.81691,174.16128 -30.46656,-53.71734 40.08758,-26.858679 247.34033,13.629779 -52.51473,68.14887 -67.748,9.22014 -118.25834,-3.60788 -18.44028,-6.81489 z"
       id="path8117"
       inkscape:path-effect="#path-effect8119"
       inkscape:original-d="m 164.81691,174.16128 -30.46656,-53.71734 40.08758,-26.858679 247.34033,13.629779 -52.51473,68.14887 -67.748,9.22014 -118.25834,-3.60788 z"
       inkscape:connector-curvature="0" />
  </g>
  <g
     inkscape:groupmode="layer"
     id="layer5"
     inkscape:label="caches"
     style="display:inline">
    <rect
       style="opacity:1;fill:white;fill-opacity:1;fill-rule:evenodd;stroke:none;stroke-width:1;stroke-linecap:butt;stroke-linejoin:miter;stroke-miterlimit:4;stroke-dasharray:none;stroke-dashoffset:0;stroke-opacity:1"
       id="rect4736"
       width="510.7157"
       height="76.968147"
       x="34.532291"
       y="58.739685" />
  </g>
  <g
     inkscape:groupmode="layer"
     id="layer3"
     inkscape:label="txt"
     style="display:inline">
    <flowRoot
       transform="translate(83.560885,63.401181)"
       style="font-style:normal;font-weight:normal;font-size:40px;line-height:125%;font-family:sans-serif;text-align:center;letter-spacing:0px;word-spacing:0px;text-anchor:middle;display:inline;fill:black;fill-opacity:1;stroke:none;stroke-width:0.30000001;stroke-linecap:butt;stroke-linejoin:miter;stroke-miterlimit:4;stroke-dasharray:none;stroke-opacity:1"
       id="flowRoot4722"
       xml:space="preserve"><flowRegion
         id="flowRegion4724"><rect
           y="24.550047"
           x="49.717148"
           height="180.74283"
           width="276.96442"
           id="rect4726"
           style="text-align:center;text-anchor:middle;stroke-width:0.30000001;stroke-miterlimit:4;stroke-dasharray:none" /></flowRegion><flowPara
         style="font-style:italic;font-variant:normal;font-weight:normal;font-stretch:normal;font-size:15px;font-family:Arapey;-inkscape-font-specification:'Arapey Italic';text-align:center;text-anchor:middle;fill:black;stroke:black;stroke-width:0.30000001;stroke-linecap:round;stroke-linejoin:round;stroke-miterlimit:4;stroke-dasharray:none;stroke-opacity:1"
         id="flowPara8650">Avec StarVote, on paie des tablettes standard. Une machine à voter coûte typiquement</flowPara><flowPara
         style="font-style:italic;font-variant:normal;font-weight:normal;font-stretch:normal;font-size:15px;font-family:Arapey;-inkscape-font-specification:'Arapey Italic';text-align:center;text-anchor:middle;fill:black;stroke:black;stroke-width:0.30000001;stroke-linecap:round;stroke-linejoin:round;stroke-miterlimit:4;stroke-dasharray:none;stroke-opacity:1"
         id="flowPara3372">3 000 dollars, une bonne tablette 1 000 dollars et on peut la changer après quelques années sans maintenance.</flowPara></flowRoot>  </g>
  <g
     inkscape:groupmode="layer"
     id="layer1"
     inkscape:label="color"
     style="filter:url(#filter6080)"
     sodipodi:insensitive="true">
    <rect
       style="opacity:1;fill:url(#linearGradient5628);fill-opacity:1;fill-rule:evenodd;stroke:none;stroke-width:1;stroke-linecap:round;stroke-linejoin:round;stroke-miterlimit:4;stroke-dasharray:none;stroke-dashoffset:0;stroke-opacity:1;filter:url(#filter5636)"
       id="rect5620"
       width="510.71893"
       height="742.87939"
       x="-535.97247"
       y="39.438187"
       transform="scale(-1,1)" />
    <rect
       style="opacity:1;fill:white;fill-opacity:1;fill-rule:evenodd;stroke:none;stroke-width:0.30000001;stroke-linecap:round;stroke-linejoin:round;stroke-miterlimit:4;stroke-dasharray:none;stroke-dashoffset:0;stroke-opacity:1"
       id="rect6084"
       width="551.60504"
       height="381.6337"
       x="-8.0175152"
       y="414.08487" />
    <rect
       y="391.63583"
       x="93.003174"
       height="68.950623"
       width="186.00636"
       id="rect6086"
       style="opacity:1;fill:white;fill-opacity:1;fill-rule:evenodd;stroke:none;stroke-width:0.30000001;stroke-linecap:round;stroke-linejoin:round;stroke-miterlimit:4;stroke-dasharray:none;stroke-dashoffset:0;stroke-opacity:1" />
  </g>
</svg>
